*Vertices 118
1 "101_102"
2 "101_103"
3 "101_105"
4 "102_104"
5 "102_106"
6 "103_109"
7 "103_124"
8 "104_109"
9 "105_110"
10 "106_110"
11 "107_108"
12 "107_203"
13 "108_109"
14 "108_110"
15 "109_111"
16 "109_112"
17 "110_111"
18 "110_112"
19 "111_113"
20 "111_114"
21 "112_113"
22 "112_123"
23 "113_123"
24 "113_215"
25 "114_116"
26 "115_116"
27 "115_121"
28 "115_121.1"
29 "115_124"
30 "116_117"
31 "116_119"
32 "117_118"
33 "117_122"
34 "118_121"
35 "118_121.1"
36 "119_120"
37 "119_120.1"
38 "120_123"
39 "120_123.1"
40 "121_122"
41 "123_217"
42 "201_202"
43 "201_203"
44 "201_205"
45 "202_204"
46 "202_206"
47 "203_209"
48 "203_224"
49 "204_209"
50 "205_210"
51 "206_210"
52 "208_209"
53 "208_210"
54 "209_211"
55 "209_212"
56 "210_211"
57 "210_212"
58 "211_213"
59 "211_214"
60 "212_213"
61 "212_223"
62 "213_223"
63 "214_216"
64 "215_216"
65 "215_221"
66 "215_221.1"
67 "215_224"
68 "216_217"
69 "216_219"
70 "217_218"
71 "217_222"
72 "218_221"
73 "218_221.1"
74 "219_220"
75 "219_220.1"
76 "220_223"
77 "220_223.1"
78 "221_222"
79 "301_302"
80 "301_303"
81 "301_305"
82 "302_304"
83 "302_306"
84 "303_309"
85 "303_324"
86 "304_309"
87 "305_310"
88 "306_310"
89 "308_309"
90 "308_310"
91 "309_311"
92 "309_312"
93 "310_311"
94 "310_312"
95 "311_313"
96 "311_314"
97 "312_313"
98 "312_323"
99 "313_323"
100 "314_316"
101 "315_316"
102 "315_321"
103 "315_321.1"
104 "315_324"
105 "316_317"
106 "316_319"
107 "317_318"
108 "317_322"
109 "318_223"
110 "318_321"
111 "318_321.1"
112 "319_320"
113 "319_320.1"
114 "320_323"
115 "320_323.1"
116 "321_322"
117 "323_325"
118 "325_121"
*Arcs 118
1 2 15.2471
1 3 25.8077
1 4 19.2495
1 5 21.7485
1 6 10.5229
1 7 5.04548
1 8 19.0292
1 9 25.3082
1 10 20.9538
1 13 1.45474
1 15 3.9721
1 16 3.67944
1 17 1.30103
1 18 1.65434
1 20 2.31882
1 22 1.09286
1 25 2.35695
1 26 3.9429
1 29 5.24898
1 31 2.24382
1 36 1.11672
1 37 1.11672
1 38 1.12194
1 39 1.12194
2 1 22.4252
2 3 16.335
2 4 11.8438
2 5 10.5277
2 6 14.8678
2 7 25.9109
2 8 11.8683
2 9 16.0635
2 10 10.0761
2 11 3.58026
2 12 3.5186
2 14 2.84547
2 16 2.02352
2 17 12.6987
2 18 11.0531
2 19 1.53941
2 20 11.2015
2 21 4.40671
2 22 4.7496
2 23 4.08091
2 24 1.92521
2 25 11.3727
2 26 19.6011
2 27 3.40332
2 28 3.40332
2 29 26.4077
2 30 3.60171
2 31 11.3284
2 32 3.17765
2 34 1.597
2 35 1.597
2 36 5.6375
2 37 5.6375
2 38 5.66341
2 39 5.66341
2 41 2.08922
2 47 1.39067
2 48 1.42318
2 64 2.19793
2 67 1.48051
2 69 1.59561
2 70 1.09872
2 101 1.12894
2 105 1.90094
2 106 2.31204
2 107 1.89236
2 109 3.4612
2 112 1.15255
2 113 1.15255
2 114 1.15954
2 115 1.15954
2 117 3.20653
2 118 3.20653
3 1 72.7316
3 2 27.2263
3 4 28.4315
3 5 44.3661
3 6 13.128
3 7 14.536
3 8 27.8972
3 9 98.9095
3 10 42.4172
3 11 2.56943
3 12 2.33526
3 13 8.78929
3 14 11.2412
3 15 15.5838
3 16 16.6936
3 17 23.4677
3 18 22.4451
3 19 1.22591
3 20 6.75119
3 21 2.90923
3 22 2.93431
3 23 2.4644
3 24 1.48351
3 25 6.85282
3 26 11.4691
3 27 1.81818
3 28 1.81818
3 29 15.1055
3 30 2.2798
3 31 6.59406
3 32 2.01137
3 34 1.01085
3 35 1.01085
3 36 3.28157
3 37 3.28157
3 38 3.29672
3 39 3.29672
3 64 1.61866
3 69 1.27129
3 105 1.19011
3 106 1.25254
3 107 1.1867
3 109 2.19806
3 117 1.35641
3 118 1.35641
4 1 51.757
4 2 25.2811
4 3 26.6654
4 5 22.2808
4 6 22.0208
4 7 3.44327
4 8 72.5597
4 9 26.1385
4 10 21.4457
4 11 3.38288
4 12 3.11845
4 13 14.0358
4 14 10.9125
4 15 19.9706
4 16 19.1716
4 17 18.2877
4 18 18.8283
4 20 1.34437
4 23 1.04448
4 25 1.33243
4 26 2.68966
4 29 3.4784
4 31 1.81434
4 41 1.03777
4 47 1.15206
4 48 1.30201
4 67 1.35445
4 109 1.15662
5 1 52.4099
5 2 15.6583
5 3 36.8984
5 4 21.0513
5 6 6.82324
5 7 9.15468
5 8 20.7051
5 9 36.0709
5 10 71.159
5 13 4.83134
5 14 5.12614
5 15 11.1118
5 16 11.7539
5 17 16.8069
5 18 16.5952
5 19 1.0462
5 20 4.74764
5 21 2.14367
5 22 2.78469
5 23 1.35561
5 24 1.62114
5 25 4.84195
5 26 7.45932
5 27 1.03385
5 28 1.03385
5 29 9.52701
5 30 1.63066
5 31 4.06762
5 32 1.43865
5 36 2.02432
5 37 2.02432
5 38 2.03371
5 39 2.03371
5 64 1.14692
5 69 1.06089
5 109 1.16142
6 1 12.0043
6 2 17.306
6 3 5.39148
6 4 8.88688
6 5 3.19922
6 7 41.9117
6 8 8.92457
6 9 5.29252
6 10 3.02594
6 11 2.31159
6 12 2.18623
6 13 4.94512
6 14 2.59697
6 15 23.7655
6 16 21.754
6 17 1.59333
6 18 4.24475
6 19 2.97494
6 20 19.2955
6 21 7.72277
6 22 9.85134
6 23 6.13087
6 24 4.55415
6 25 19.6444
6 26 32.4503
6 27 5.3702
6 28 5.3702
6 29 43.1907
6 30 6.22542
6 31 18.2429
6 32 5.49249
6 34 2.76037
6 35 2.76037
6 36 9.07838
6 37 9.07838
6 38 9.12005
6 39 9.12005
6 41 1.62496
6 47 1.11917
6 64 3.69099
6 69 3.02191
6 70 1.27095
6 74 1.50673
6 75 1.50673
6 76 1.51614
6 77 1.51614
6 96 1.00197
6 100 1.01975
6 101 1.61995
6 102 1.08248
6 103 1.08248
6 105 2.74694
6 106 3.30486
6 107 2.73491
6 109 5.00737
6 110 1.13041
6 111 1.13041
6 112 1.64747
6 113 1.64747
6 114 1.65746
6 115 1.65746
6 117 4.51286
6 118 4.51286
7 1 16.8406
7 2 35.1816
7 3 17.6717
7 4 4.32959
7 5 11.8462
7 6 65.683
7 8 4.38279
7 9 17.5105
7 10 11.4629
7 11 10.8776
7 12 9.94376
7 13 9.93775
7 15 34.1676
7 16 28.4282
7 17 17.6304
7 18 11.4762
7 19 7.72446
7 20 44.5111
7 21 18.8349
7 22 21.4342
7 23 15.4982
7 24 10.4936
7 25 45.5058
7 26 77.1791
7 27 12.2775
7 28 12.2775
7 29 101.734
7 30 14.6989
7 31 43.9668
7 32 12.9813
7 33 1.99562
7 34 6.52689
7 35 6.52689
7 36 21.8247
7 37 21.8247
7 38 21.8781
7 39 21.8781
7 40 2.01346
7 41 4.99268
7 42 1.13232
7 43 2.53087
7 47 4.48731
7 48 2.98747
7 54 1.38111
7 55 2.28448
7 58 2.48254
7 59 1.05076
7 61 2.39196
7 62 2.30494
7 63 1.07064
7 64 9.78073
7 65 2.02698
7 66 2.02698
7 67 3.10994
7 69 7.82554
7 70 3.57678
7 72 1.79774
7 73 1.79774
7 74 3.9036
7 75 3.9036
7 76 3.92948
7 77 3.92948
7 85 1.64931
7 95 1.84244
7 96 3.02242
7 100 3.07482
7 101 4.05706
7 102 2.88623
7 103 2.88623
7 104 1.71541
7 105 7.20638
7 106 8.06559
7 107 7.17745
7 109 13.2226
7 110 3.00819
7 111 3.00819
7 112 4.02256
7 113 4.02256
7 114 4.04856
7 115 4.04856
7 117 9.8385
7 118 9.8385
8 1 68.5038
8 2 31.6581
8 3 36.6354
8 4 99.0177
8 5 30.401
8 6 27.0138
8 7 5.74044
8 9 36.1208
8 10 29.3999
8 13 12.2466
8 14 12.6987
8 15 28.8237
8 16 28.8104
8 17 26.7337
8 18 27.2386
8 20 2.1458
8 22 1.02773
8 25 2.18724
8 26 4.10456
8 29 5.99384
8 31 2.35732
8 36 1.17327
8 37 1.17327
8 38 1.1788
8 39 1.1788
8 117 1.37519
8 118 1.37519
9 1 65.4759
9 2 23.7366
9 3 89.3596
9 4 24.9461
9 5 40.3776
9 6 11.7015
9 7 12.6775
9 8 24.6264
9 10 39.3621
9 11 2.4018
9 12 2.607
9 13 8.63217
9 14 10.8717
9 15 13.4668
9 16 14.4328
9 17 18.5605
9 18 17.3964
9 20 4.89847
9 21 1.58311
9 22 1.41368
9 23 2.07003
9 25 4.95288
9 26 9.36388
9 27 1.90982
9 28 1.90982
9 29 13.1835
9 30 1.43837
9 31 5.61067
9 32 1.26895
9 36 2.79256
9 37 2.79256
9 38 2.80577
9 39 2.80577
9 41 1.94213
9 48 1.37809
9 67 1.43353
9 68 1.07616
9 106 1.39577
9 109 1.69963
9 117 2.3953
9 118 2.3953
10 1 67.8539
10 2 22.9526
10 3 43.8639
10 4 30.5333
10 5 99.2158
10 6 9.66267
10 7 13.8753
10 8 30.2741
10 9 43.7024
10 11 7.11233
10 12 5.66484
10 13 6.59482
10 15 16.9295
10 16 17.2916
10 17 20.9799
10 18 21.7792
10 20 5.03314
10 22 4.04127
10 25 5.15397
10 26 9.49054
10 27 2.58427
10 28 2.58427
10 29 14.6591
10 31 5.07687
10 36 2.52717
10 37 2.52717
10 38 2.53939
10 39 2.53939
10 43 1.65903
10 47 2.31015
10 48 1.68583
10 64 1.36559
10 67 1.75385
10 69 1.23467
10 96 1.0178
10 98 1.39113
10 99 1.67678
10 100 1.03553
10 106 1.14101
10 117 4.38367
10 118 4.38367
11 1 2.44153
11 2 4.58763
11 3 2.88619
11 4 1.11611
11 5 2.06389
11 6 8.7113
11 7 13.6163
11 9 2.81235
11 10 2.23313
11 12 94.468
11 13 44.7778
11 14 47.3247
11 15 18.9847
11 16 19.5311
11 17 22.627
11 18 23.1749
11 19 27.7242
11 20 14.2106
11 21 26.4658
11 22 16.6333
11 23 6.71397
11 24 47.3279
11 25 14.4273
11 26 1.86911
11 27 6.19267
11 28 6.19267
11 29 14.2545
11 30 5.49514
11 31 11.3834
11 32 4.84875
11 34 2.43698
11 35 2.43698
11 36 5.6671
11 37 5.6671
11 38 5.69506
11 39 5.69506
11 41 36.1427
11 42 6.67983
11 43 13.3766
11 44 7.43691
11 45 2.42046
11 46 4.99411
11 47 28.6287
11 48 48.8281
11 49 2.37922
11 50 7.29006
11 51 4.77612
11 52 1.15234
11 53 2.15978
11 54 15.5436
11 55 13.724
11 56 8.23755
11 57 6.24114
11 58 3.35829
11 59 20.565
11 60 6.88017
11 61 13.2227
11 62 11.5937
11 63 20.9234
11 64 8.43664
11 65 5.26372
11 66 5.26372
11 67 50.5575
11 68 25.0009
11 69 11.747
11 70 9.27352
11 71 1.43931
11 72 4.66153
11 73 4.66153
11 74 5.85874
11 75 5.85874
11 76 5.89671
11 77 5.89671
11 78 1.45222
11 92 1.44881
11 94 1.40789
11 95 2.26502
11 96 2.06042
11 98 2.94807
11 99 3.45445
11 100 2.09747
11 101 5.24537
11 102 3.09948
11 103 3.09948
11 105 8.1423
11 106 11.1962
11 107 8.09471
11 109 14.6253
11 110 3.24756
11 111 3.24756
11 112 5.57957
11 113 5.57957
11 114 5.61196
11 115 5.61196
11 117 18.0402
11 118 18.0402
12 6 1.58343
12 7 2.42825
12 11 17.7902
12 13 8.49092
12 14 8.89212
12 15 3.56112
12 16 3.69754
12 17 4.20173
12 18 4.34383
12 19 4.83083
12 20 2.98608
12 21 4.66731
12 22 3.43729
12 23 1.46702
12 24 8.29919
12 25 3.03422
12 27 1.26916
12 28 1.26916
12 29 2.52798
12 30 1.26636
12 31 1.86716
12 32 1.11721
12 41 7.03222
12 42 2.75869
12 43 6.80428
12 44 3.97684
12 46 2.70001
12 47 11.6033
12 50 3.90313
12 51 2.53838
12 52 1.90063
12 53 1.88194
12 54 5.72649
12 55 4.41512
12 56 4.79854
12 57 3.72375
12 58 1.61344
12 59 9.00377
12 60 3.35937
12 61 4.87575
12 62 4.95829
12 63 9.15328
12 64 9.15774
12 68 6.63321
12 69 6.25645
12 74 3.11931
12 75 3.11931
12 76 3.13863
12 77 3.13863
12 101 1.36656
12 105 2.31214
12 106 2.7913
12 107 2.30193
12 109 4.21327
12 112 1.39145
12 113 1.39145
12 114 1.39989
12 115 1.39989
12 117 3.8304
12 118 3.8304
13 1 4.62601
13 2 5.33905
13 3 10.1375
13 4 12.0546
13 5 7.60354
13 6 14.0566
13 7 8.55504
13 8 11.96
13 9 9.94654
13 10 7.30826
13 11 35.309
13 12 35.0684
13 14 60.9594
13 15 35.2477
13 16 36.2068
13 17 23.2787
13 18 22.8023
13 19 9.07944
13 20 2.87911
13 21 8.10599
13 22 5.30475
13 23 1.40668
13 24 16.3271
13 25 2.93115
13 26 4.07073
13 27 2.40655
13 28 2.40655
13 29 8.88382
13 31 6.14304
13 36 3.05708
13 37 3.05708
13 38 3.07117
13 39 3.07117
13 41 13.2229
13 42 2.76899
13 43 5.73265
13 44 2.79125
13 46 1.85989
13 47 11.59
13 48 18.0055
13 50 2.74092
13 51 1.78122
13 54 5.94517
13 55 5.40059
13 56 2.91298
13 57 2.31565
13 58 1.73667
13 59 7.17783
13 60 2.79509
13 61 4.9776
13 62 4.30605
13 63 7.31175
13 64 1.98288
13 65 2.04909
13 66 2.04909
13 67 18.7513
13 68 8.84311
13 69 3.23693
13 70 3.61204
13 72 1.81529
13 73 1.81529
13 74 1.61383
13 75 1.61383
13 76 1.62381
13 77 1.62381
13 96 1.3862
13 100 1.41073
13 101 2.14136
13 102 1.45202
13 103 1.45202
13 105 3.67033
13 106 4.34286
13 107 3.65482
13 109 6.70174
13 110 1.51573
13 111 1.51573
13 112 2.16501
13 113 2.16501
13 114 2.17823
13 115 2.17823
13 117 5.7872
13 118 5.7872
14 1 3.43499
14 2 9.10845
14 3 12.3243
14 4 12.881
14 5 9.22914
14 6 8.40852
14 8 12.6584
14 9 12.1423
14 10 9.21508
14 11 33.8868
14 12 33.581
14 13 54.6641
14 15 18.3068
14 16 18.2518
14 17 33.592
14 18 33.5001
14 19 9.43522
14 20 5.93949
14 21 9.29152
14 22 6.0711
14 23 2.8243
14 24 16.5854
14 25 6.01743
14 26 1.67251
14 27 1.28696
14 28 1.28696
14 30 1.87669
14 31 2.71027
14 32 1.65562
14 36 1.34884
14 37 1.34884
14 38 1.35512
14 39 1.35512
14 41 12.1064
14 42 2.64093
14 43 5.4839
14 44 2.62385
14 46 1.74616
14 47 11.0349
14 48 17.2579
14 50 2.57638
14 51 1.67222
14 54 5.64947
14 55 5.08307
14 56 2.75004
14 57 2.1313
14 58 1.57253
14 59 6.88027
14 60 2.66718
14 61 4.59976
14 62 3.93235
14 63 7.0084
14 64 2.51742
14 65 1.79278
14 66 1.79278
14 67 17.9692
14 68 8.26479
14 69 3.50726
14 70 3.15999
14 72 1.5881
14 73 1.5881
14 74 1.74861
14 75 1.74861
14 76 1.75943
14 77 1.75943
14 96 1.22441
14 100 1.24608
14 101 1.75335
14 102 1.21956
14 103 1.21956
14 105 3.06194
14 106 3.51832
14 107 3.05011
14 109 5.60776
14 110 1.27235
14 111 1.27235
14 112 1.75392
14 113 1.75392
14 114 1.7646
14 115 1.7646
14 117 4.47801
14 118 4.47801
15 1 6.61406
15 2 3.22866
15 3 9.77928
15 4 14.1255
15 5 7.45332
15 6 20.3613
15 7 17.1944
15 8 13.7428
15 9 9.63023
15 10 7.18716
15 11 7.68597
15 12 7.59745
15 13 18.2484
15 14 10.7981
15 16 46.9678
15 17 35.7585
15 18 7.38196
15 19 40.593
15 20 23.5029
15 21 30.2239
15 22 9.71572
15 23 4.7503
15 24 5.85198
15 25 23.8404
15 26 14.9235
15 27 1.52723
15 28 1.52723
15 29 17.9779
15 30 3.80259
15 31 5.9791
15 32 3.35423
15 34 1.68559
15 35 1.68559
15 36 2.97516
15 37 2.97516
15 38 2.98857
15 39 2.98857
15 43 1.22082
15 47 2.44312
15 48 3.95541
15 54 1.24525
15 55 1.11148
15 59 1.5232
15 63 1.55146
15 64 1.66815
15 67 4.11693
15 109 1.08421
16 1 6.27797
16 2 4.38348
16 3 10.5557
16 4 14.3766
16 5 7.99814
16 6 18.6548
16 7 14.3239
16 8 13.956
16 9 10.4018
16 10 7.72383
16 11 8.22008
16 12 8.07253
16 13 19.0239
16 14 11.0629
16 15 47.2514
16 17 7.97582
16 18 37.9894
16 19 33.7773
16 20 5.82881
16 21 41.1573
16 22 20.2532
16 23 1.42346
16 24 5.80616
16 25 5.9129
16 26 10.7959
16 27 2.09705
16 28 2.09705
16 29 14.99
16 30 1.76302
16 31 18.6813
16 32 1.55526
16 36 9.30473
16 37 9.30473
16 38 9.35442
16 39 9.35442
16 41 3.97235
16 43 1.24384
16 47 2.44394
16 48 4.41812
16 54 1.34434
16 59 2.12533
16 63 2.16504
16 64 2.17278
16 67 4.59931
16 68 3.03206
16 69 2.95514
16 74 1.47324
16 75 1.47324
16 76 1.48226
16 77 1.48226
16 105 1.0869
16 106 1.5042
16 107 1.08025
16 109 1.95016
16 117 2.44158
16 118 2.44158
17 1 1.83478
17 2 10.4719
17 3 12.4807
17 4 10.7665
17 5 9.10669
17 6 2.29065
17 7 8.59189
17 8 10.7195
17 9 12.1868
17 10 8.6093
17 11 8.13908
17 12 7.89627
17 13 9.61291
17 14 17.5503
17 15 32.0861
17 16 8.51794
17 18 53.5969
17 19 40.4288
17 20 20.0667
17 21 32.9287
17 22 12.7076
17 23 3.30554
17 24 4.39589
17 25 20.3741
17 26 8.02426
17 29 8.96496
17 30 2.39371
17 31 10.6325
17 32 2.11147
17 34 1.06107
17 35 1.06107
17 36 5.28871
17 37 5.28871
17 38 5.3109
17 39 5.3109
17 43 1.40174
17 47 2.69568
17 48 3.83962
17 54 1.24491
17 55 1.23012
17 59 1.17822
17 61 1.09728
17 63 1.20003
17 67 3.9975
17 105 1.26765
17 106 1.34072
17 107 1.26388
17 109 2.34
17 117 1.46713
17 118 1.46713
18 1 2.45969
18 2 10.022
18 3 12.6977
18 4 11.5558
18 5 9.31327
18 6 4.64143
18 7 5.77554
18 8 11.518
18 9 12.4002
18 10 8.84995
18 11 9.01323
18 12 8.71184
18 13 9.90519
18 14 18.6785
18 15 7.89494
18 16 34.9488
18 17 54.712
18 19 36.337
18 20 11.0282
18 21 40.5038
18 22 19.8142
18 24 4.42747
18 25 11.2192
18 26 3.85245
18 27 1.08674
18 28 1.08674
18 29 6.02593
18 31 15.7806
18 36 7.8613
18 37 7.8613
18 38 7.90442
18 39 7.90442
18 41 4.43693
18 43 1.47475
18 47 2.79904
18 48 4.49764
18 54 1.40732
18 55 1.11912
18 59 1.89772
18 63 1.93323
18 64 1.09901
18 67 4.68368
18 68 3.06969
18 69 2.16123
18 70 1.12067
18 74 1.07744
18 75 1.07744
18 76 1.08403
18 77 1.08403
18 117 1.8923
18 118 1.8923
19 2 1.00181
19 6 1.84379
19 7 2.91549
19 11 8.14478
19 12 7.96814
19 13 3.68195
19 14 4.22327
19 15 30.7608
19 16 24.942
19 17 32.07
19 18 26.6445
19 20 36.2401
19 21 51.2938
19 23 27.1734
19 24 21.0922
19 25 36.9535
19 26 1.59272
19 27 2.32154
19 28 2.32154
19 29 3.05037
19 30 2.87733
19 31 33.9617
19 32 2.53883
19 34 1.276
19 35 1.276
19 36 16.9277
19 37 16.9277
19 38 17.0284
19 39 17.0284
19 41 7.01378
19 47 1.83978
19 48 5.20866
19 54 1.21714
19 59 2.78095
19 63 2.83329
19 64 10.9755
19 65 2.52167
19 66 2.52167
19 67 5.42327
19 68 1.83978
19 69 6.17394
19 70 4.44544
19 72 2.23486
19 73 2.23486
19 74 3.07745
19 75 3.07745
19 76 3.0959
19 77 3.0959
19 95 1.05664
19 96 1.19282
19 98 1.09391
19 99 1.27197
19 100 1.21419
19 101 2.41248
19 102 1.50957
19 103 1.50957
19 105 3.90049
19 106 5.0465
19 107 3.8807
19 109 7.05621
19 110 1.57929
19 111 1.57929
19 112 2.51507
19 113 2.51507
19 114 2.52981
19 115 2.52981
19 117 7.58478
19 118 7.58478
20 1 3.61448
20 2 7.28535
20 3 3.85735
20 4 1.21778
20 5 2.58048
20 6 15.3619
20 7 22.9133
20 8 1.19769
20 9 3.78349
20 10 2.46525
20 11 5.52063
20 12 5.26042
20 13 1.73671
20 14 3.65325
20 15 24.3233
20 16 6.22936
20 17 20.9852
20 18 10.8834
20 19 50.434
20 21 4.78133
20 22 22.0402
20 23 28.2216
20 24 18.1867
20 25 96.8379
20 26 25.8539
20 29 23.9389
20 30 10.1806
20 31 63.442
20 32 8.97687
20 33 1.38075
20 34 4.5104
20 35 4.5104
20 36 31.4877
20 37 31.4877
20 38 31.561
20 39 31.561
20 40 1.39123
20 41 10.5903
20 43 1.49803
20 47 2.88722
20 55 1.78202
20 58 2.13193
20 59 1.19671
20 61 2.28174
20 62 2.37489
20 63 1.21923
20 64 12.7989
20 65 3.35212
20 66 3.35212
20 68 3.65351
20 69 7.86495
20 70 5.91491
20 72 2.97273
20 73 2.97273
20 74 3.92277
20 75 3.92277
20 76 3.94835
20 77 3.94835
20 85 1.35157
20 95 1.91421
20 96 2.6011
20 98 1.44673
20 99 1.65927
20 100 2.64667
20 101 4.29831
20 102 2.8521
20 103 2.8521
20 104 1.40588
20 105 7.25332
20 106 8.79603
20 107 7.21837
20 109 13.2034
20 110 2.97781
20 111 2.97781
20 112 4.38642
20 113 4.38642
20 114 4.4144
20 115 4.4144
20 117 12.1623
20 118 12.1623
21 1 1.10697
21 2 2.19154
21 3 1.20001
21 6 4.39307
21 7 6.6785
21 9 1.17885
21 11 7.23458
21 12 7.07351
21 13 3.12262
21 14 3.91176
21 15 21.3697
21 16 29.3209
21 17 23.6503
21 18 29.7251
21 19 48.7343
21 20 3.3718
21 22 40.5444
21 23 30.7437
21 24 20.3119
21 25 3.44248
21 26 3.8665
21 27 1.54988
21 28 1.54988
21 29 6.96626
21 41 11.3928
21 47 1.80221
21 48 4.35688
21 54 1.01871
21 59 1.78411
21 63 1.81738
21 64 9.84055
21 65 3.14511
21 66 3.14511
21 67 4.53495
21 68 4.89004
21 69 3.04607
21 70 5.54391
21 72 2.78699
21 73 2.78699
21 74 1.51859
21 75 1.51859
21 76 1.52791
21 77 1.52791
21 105 1.53164
21 106 2.07299
21 107 1.52275
21 109 2.75562
21 112 1.03329
21 113 1.03329
21 114 1.03948
21 115 1.03948
21 117 3.28461
21 118 3.28461
22 1 1.77728
22 2 3.50323
22 3 2.01982
22 5 1.37137
22 6 7.38711
22 7 11.0296
22 9 1.9826
22 10 1.34492
22 11 7.14347
22 12 6.73342
22 13 2.92577
22 14 4.02143
22 15 10.2894
22 16 21.277
22 17 12.8432
22 18 20.3535
22 19 1.62206
22 20 21.6903
22 21 58.104
22 23 41.768
22 24 18.7855
22 25 22.1136
22 26 9.17444
22 27 1.17136
22 28 1.17136
22 29 11.5172
22 30 2.10638
22 31 34.2206
22 32 1.85801
22 36 17.0688
22 37 17.0688
22 38 17.1807
22 39 17.1807
22 41 24.2011
22 43 1.48332
22 47 2.73721
22 48 2.54062
22 54 1.22475
22 55 1.14771
22 59 1.19281
22 63 1.21498
22 64 10.9499
22 65 5.466
22 66 5.466
22 67 2.64457
22 68 12.6335
22 70 9.64965
22 71 1.49678
22 72 4.84825
22 73 4.84825
22 78 1.50873
22 109 1.21048
23 1 1.02845
23 2 2.01785
23 3 1.2032
23 6 4.32917
23 7 6.41677
23 9 1.18161
23 11 2.30075
23 12 2.00242
23 14 1.40607
23 15 4.21256
23 16 1.34259
23 17 3.21747
23 19 30.7935
23 20 23.317
23 21 36.5351
23 22 34.9461
23 24 31.45
23 25 23.773
23 26 6.43531
23 29 6.68897
23 30 2.16876
23 31 33.2521
23 32 1.91308
23 36 16.5789
23 37 16.5789
23 38 16.6818
23 39 16.6818
23 41 31.1171
23 47 1.50462
23 64 17.1165
23 65 7.38686
23 66 7.38686
23 68 15.5124
23 69 1.57934
23 70 13.0436
23 71 2.02263
23 72 6.5532
23 73 6.5532
23 78 2.0386
23 105 1.62898
23 106 1.73651
23 107 1.62396
23 109 3.00471
23 117 1.93102
23 118 1.93102
24 2 1.47152
24 6 3.16881
24 7 4.68439
24 11 17.4854
24 12 17.2957
24 13 8.04673
24 14 8.9937
24 15 5.95429
24 16 5.88365
24 17 5.36313
24 18 5.28681
24 19 29.4063
24 20 18.015
24 21 30.0185
24 22 18.7665
24 23 38.0957
24 25 18.3419
24 26 5.7502
24 27 5.31387
24 28 5.31387
24 29 4.87753
24 30 7.33558
24 31 5.93717
24 32 6.47325
24 34 3.25357
24 35 3.25357
24 36 2.95541
24 37 2.95541
24 38 2.9697
24 39 2.9697
24 40 1.00362
24 41 65.5651
24 43 1.46383
24 47 2.84867
24 48 13.1358
24 54 2.22331
24 56 1.50485
24 58 2.26234
24 59 6.01522
24 62 1.53868
24 63 6.12915
24 64 50.9061
24 65 17.485
24 66 17.485
24 67 13.6852
24 68 29.7629
24 69 14.6413
24 70 30.7748
24 71 4.75285
24 72 15.4776
24 73 15.4776
24 74 7.29698
24 75 7.29698
24 76 7.33977
24 77 7.33977
24 78 4.79913
24 84 1.09729
24 85 1.57315
24 92 1.34716
24 94 1.11401
24 95 2.62094
24 96 3.1477
24 98 2.48442
24 99 2.87824
24 100 3.20428
24 101 5.95811
24 102 3.79754
24 103 3.79754
24 104 1.63697
24 105 9.76041
24 106 12.3771
24 107 9.71467
24 109 17.701
24 110 3.97164
24 111 3.97164
24 112 6.16764
24 113 6.16764
24 114 6.20305
24 115 6.20305
24 117 18.1345
24 118 18.1345
25 1 3.73216
25 2 7.37488
25 3 4.12341
25 4 1.42031
25 5 2.78907
25 6 15.539
25 7 23.3277
25 8 1.35583
25 9 4.03853
25 10 2.714
25 11 6.83991
25 12 6.16918
25 13 2.33696
25 14 4.29156
25 15 25.3158
25 16 6.4614
25 17 22.4651
25 18 11.2122
25 19 52.3067
25 20 100.307
25 21 4.53494
25 22 22.3764
25 23 29.1666
25 24 19.3407
25 26 26.0912
25 29 24.5346
25 30 9.99165
25 31 65.6739
25 32 8.81898
25 33 1.34625
25 34 4.43109
25 35 4.43109
25 36 32.4788
25 37 32.4788
25 38 32.4555
25 39 32.4555
25 40 1.35582
25 41 10.5674
25 43 1.89771
25 47 3.38718
25 55 1.91055
25 58 2.42672
25 59 1.65631
25 61 2.2473
25 62 2.28422
25 63 1.68696
25 64 13.8675
25 65 3.47088
25 66 3.47088
25 68 3.36848
25 69 8.74094
25 70 6.12922
25 72 3.0798
25 73 3.0798
25 74 4.36195
25 75 4.36195
25 76 4.39234
25 77 4.39234
25 85 1.61176
25 95 1.99472
25 96 3.01341
25 98 1.13983
25 99 1.28512
25 100 3.06499
25 101 4.42602
25 102 3.05097
25 103 3.05097
25 104 1.67593
25 105 7.68294
25 106 8.92151
25 107 7.646
25 109 14.037
25 110 3.1809
25 111 3.1809
25 112 4.45121
25 113 4.45121
25 114 4.48149
25 115 4.48149
25 117 11.5823
25 118 11.5823
26 1 2.48209
26 2 5.03581
26 3 2.59404
26 5 1.73422
26 6 10.4537
26 7 15.6463
26 9 2.54667
26 10 1.6622
26 15 6.05155
26 16 4.35007
26 17 3.33048
26 18 1.51591
26 19 1.09622
26 20 10.5381
26 21 2.0708
26 22 3.83571
26 23 3.29843
26 24 2.24459
26 25 10.7096
26 27 38.6714
26 28 38.6714
26 29 16.3053
26 30 69.3951
26 31 12.9983
26 32 61.3413
26 33 9.42707
26 34 30.8541
26 35 30.8541
26 36 6.47119
26 37 6.47119
26 38 6.50323
26 39 6.50323
26 40 9.51875
26 41 5.61272
26 58 1.12872
26 59 1.50183
26 62 1.07476
26 63 1.52978
26 64 2.69567
26 68 4.19988
26 69 5.30491
26 70 1.14521
26 74 2.64533
26 75 2.64533
26 76 2.66208
26 77 2.66208
26 95 1.11901
26 96 1.44788
26 99 1.07647
26 100 1.4735
26 101 2.52541
26 102 1.64833
26 103 1.64833
26 105 4.21012
26 106 5.2005
26 107 4.18993
26 109 7.65179
26 110 1.72212
26 111 1.72212
26 112 2.59271
26 113 2.59271
26 114 2.60866
26 115 2.60866
26 117 7.37072
26 118 7.37072
27 2 1.02634
27 6 2.00502
27 7 3.05848
27 19 1.3998
27 24 2.32611
27 26 41.2551
27 28 52.8196
27 29 3.18053
27 30 38.0043
27 31 2.34993
27 32 33.616
27 33 5.165
27 34 16.9134
27 35 16.9134
27 36 1.16971
27 37 1.16971
27 38 1.17533
27 39 1.17533
27 40 5.2182
27 41 2.51909
27 64 2.44826
27 68 2.17972
27 69 3.631
27 74 1.81078
27 75 1.81078
27 76 1.82238
27 77 1.82238
27 96 1.07893
27 100 1.09794
27 101 1.73685
27 102 1.1621
27 103 1.1621
27 105 2.94836
27 106 3.54201
27 107 2.93498
27 109 5.37381
27 110 1.2133
27 111 1.2133
27 112 1.76602
27 113 1.76602
27 114 1.77701
27 115 1.77701
27 117 4.82934
27 118 4.82934
28 2 1.02634
28 6 2.00502
28 7 3.05848
28 19 1.3998
28 24 2.32611
28 26 41.2551
28 27 52.8196
28 29 3.18053
28 30 38.0043
28 31 2.34993
28 32 33.616
28 33 5.165
28 34 16.9134
28 35 16.9134
28 36 1.16971
28 37 1.16971
28 38 1.17533
28 39 1.17533
28 40 5.2182
28 41 2.51909
28 64 2.44826
28 68 2.17972
28 69 3.631
28 74 1.81078
28 75 1.81078
28 76 1.82238
28 77 1.82238
28 96 1.07893
28 100 1.09794
28 101 1.73685
28 102 1.1621
28 103 1.1621
28 105 2.94836
28 106 3.54201
28 107 2.93498
28 109 5.37381
28 110 1.2133
28 111 1.2133
28 112 1.76602
28 113 1.76602
28 114 1.77701
28 115 1.77701
28 117 4.82934
28 118 4.82934
29 1 16.3094
29 2 34.0721
29 3 17.1135
29 4 4.1925
29 5 11.472
29 6 63.6108
29 7 96.6353
29 8 4.24402
29 9 16.9575
29 10 11.1008
29 11 10.537
29 12 9.63115
29 13 9.62547
29 15 33.0881
29 16 27.5311
29 17 17.0723
29 18 11.1137
29 19 7.48415
29 20 43.1
29 21 18.2415
29 22 20.7565
29 23 15.0069
29 24 10.1674
29 25 44.0631
29 26 74.6644
29 27 11.9308
29 28 11.9308
29 30 14.2991
29 31 42.5683
29 32 12.6283
29 33 1.94134
29 34 6.34939
29 35 6.34939
29 36 21.1305
29 37 21.1305
29 38 21.1822
29 39 21.1822
29 40 1.95871
29 41 4.82786
29 42 1.09702
29 43 2.45222
29 47 4.34711
29 48 2.89176
29 54 1.33714
29 55 2.21291
29 58 2.40599
29 59 1.02079
29 61 2.31678
29 62 2.23246
29 63 1.0401
29 64 9.47702
29 65 1.96235
29 66 1.96235
29 67 3.01031
29 69 7.58592
29 70 3.46273
29 72 1.74042
29 73 1.74042
29 74 3.78408
29 75 3.78408
29 76 3.80916
29 77 3.80916
29 85 1.59868
29 95 1.78535
29 96 2.92947
29 100 2.98025
29 101 3.93124
29 102 2.79699
29 103 2.79699
29 104 1.66274
29 105 6.98338
29 106 7.81513
29 107 6.95536
29 109 12.8136
29 110 2.91517
29 111 2.91517
29 112 3.89765
29 113 3.89765
29 114 3.92284
29 115 3.92284
29 117 9.53114
29 118 9.53114
30 6 2.24074
30 7 3.25953
30 11 1.17936
30 15 2.02132
30 17 1.50638
30 19 2.18338
30 20 5.73422
30 22 1.38162
30 23 1.6849
30 24 3.75213
30 25 5.82444
30 26 85.0447
30 27 44.22
30 28 44.22
30 29 3.39537
30 31 8.64898
30 32 86.744
30 33 13.1616
30 34 43.4271
30 35 43.4271
30 36 4.30792
30 37 4.30792
30 38 4.33111
30 39 4.33111
30 40 13.1555
30 41 5.50957
30 58 1.50216
30 59 1.83713
30 61 1.17846
30 62 1.31539
30 63 1.87087
30 64 4.0732
30 68 4.46773
30 69 6.59566
30 74 3.2904
30 75 3.2904
30 76 3.31247
30 77 3.31247
30 85 1.00887
30 95 1.37819
30 96 1.92604
30 99 1.11655
30 100 1.95957
30 101 3.08529
30 102 2.0673
30 103 2.0673
30 104 1.04931
30 105 5.24414
30 106 6.28989
30 107 5.2188
30 109 9.55488
30 110 2.15759
30 111 2.15759
30 112 3.13712
30 113 3.13712
30 114 3.15753
30 115 3.15753
30 117 8.56494
30 118 8.56494
31 1 2.77784
31 2 5.62142
31 3 2.92496
31 5 1.95834
31 6 11.6884
31 7 17.4905
31 9 2.87151
31 10 1.88148
31 11 2.97101
31 12 3.08457
31 13 2.07624
31 15 4.78337
31 16 15.0086
31 17 8.2955
31 18 12.2744
31 19 35.5838
31 20 48.7632
31 22 27.5065
31 23 31.7569
31 24 4.49058
31 25 49.7094
31 26 24.9738
31 27 3.37073
31 28 3.37073
31 29 18.2323
31 30 12.2642
31 32 10.816
31 33 1.66353
31 34 5.43486
31 35 5.43486
31 36 44.2532
31 37 44.2532
31 38 44.5091
31 39 44.5091
31 40 1.6764
31 41 27.7495
31 48 3.28086
31 58 2.82852
31 59 4.64301
31 61 1.99571
31 62 2.45982
31 63 4.72851
31 64 1.31586
31 65 4.6529
31 66 4.6529
31 67 3.41216
31 68 17.9481
31 69 14.3597
31 70 8.19879
31 71 1.27145
31 72 4.12131
31 73 4.12131
31 74 7.16218
31 75 7.16218
31 76 7.20894
31 77 7.20894
31 78 1.28281
31 84 1.23723
31 85 1.8967
31 92 1.37841
31 94 1.06205
31 95 2.88773
31 96 3.71208
31 98 2.43948
31 99 2.81353
31 100 3.77734
31 101 6.51723
31 102 4.24511
31 103 4.24511
31 104 1.97298
31 105 10.8504
31 106 13.4333
31 107 10.796
31 109 19.7093
31 110 4.43446
31 111 4.43446
31 112 6.69859
31 113 6.69859
31 114 6.74098
31 115 6.74098
31 117 19.1095
31 118 19.1095
32 6 1.59141
32 7 2.34384
32 15 1.36563
32 19 1.42051
32 20 3.78646
32 23 1.1079
32 24 2.50636
32 25 3.8487
32 26 58.9147
32 27 30.6773
32 28 30.6773
32 29 2.43995
32 30 68.3192
32 31 5.74818
32 33 23.9511
32 34 46.7948
32 35 46.7948
32 36 2.86166
32 37 2.86166
32 38 2.87576
32 39 2.87576
32 40 24.3834
32 41 3.66714
32 58 1.01301
32 59 1.17663
32 63 1.1985
32 64 2.7465
32 68 2.97896
32 69 4.47845
32 74 2.23342
32 75 2.23342
32 76 2.24774
32 77 2.24774
32 96 1.28727
32 100 1.30996
32 101 2.16286
32 102 1.42784
32 103 1.42784
32 105 3.63583
32 106 4.43444
32 107 3.61863
32 109 6.6161
32 110 1.4912
32 111 1.4912
32 112 2.211
32 113 2.211
32 114 2.22479
32 115 2.22479
32 117 6.17784
32 118 6.17784
33 20 2.13294
33 24 1.33503
33 25 2.16844
33 26 24.65
33 27 12.6975
33 28 12.6975
33 30 30.0278
33 31 3.23472
33 32 69.4306
33 34 34.9491
33 35 34.9491
33 36 1.61011
33 37 1.61011
33 38 1.61783
33 39 1.61783
33 40 97.961
33 41 2.01642
33 64 1.37617
33 68 1.60552
33 69 2.14883
33 74 1.07148
33 75 1.07148
33 76 1.07823
33 77 1.07823
33 105 1.46676
33 106 1.56324
33 107 1.46229
33 109 2.70568
33 117 1.73733
33 118 1.73733
34 20 1.14015
34 25 1.15929
34 26 18.1824
34 27 9.47541
34 28 9.47541
34 30 21.0507
34 31 1.73328
34 32 29.2501
34 33 7.82821
34 35 70.3855
34 40 7.89688
34 41 1.10719
34 69 1.36771
34 105 1.12283
34 106 1.38161
34 107 1.1176
34 109 2.04189
34 117 1.94727
34 118 1.94727
35 20 1.14015
35 25 1.15929
35 26 18.1824
35 27 9.47541
35 28 9.47541
35 30 21.0507
35 31 1.73328
35 32 29.2501
35 33 7.82821
35 34 70.3855
35 40 7.89688
35 41 1.10719
35 69 1.36771
35 105 1.12283
35 106 1.38161
35 107 1.1176
35 109 2.04189
35 117 1.94727
35 118 1.94727
36 2 1.21169
36 6 2.4785
36 7 3.72332
36 15 1.03197
36 16 3.16065
36 17 1.78715
36 18 2.57294
36 19 7.56334
36 20 10.4034
36 22 5.76215
36 23 6.66763
36 24 1.02056
36 25 10.575
36 26 5.35505
36 29 3.87345
36 30 2.64591
36 31 18.9255
36 32 2.33443
36 34 1.17323
36 35 1.17323
36 37 63.6976
36 38 9.32104
36 39 9.32104
36 41 5.78231
36 68 3.71424
36 69 2.96184
36 70 1.71636
36 74 1.47667
36 75 1.47667
36 76 1.48579
36 77 1.48579
36 101 1.38346
36 105 2.27849
36 106 2.8668
36 107 2.26741
36 109 4.13386
36 112 1.42899
36 113 1.42899
36 114 1.43757
36 115 1.43757
36 117 4.16167
36 118 4.16167
37 2 1.21169
37 6 2.4785
37 7 3.72332
37 15 1.03197
37 16 3.16065
37 17 1.78715
37 18 2.57294
37 19 7.56334
37 20 10.4034
37 22 5.76215
37 23 6.66763
37 24 1.02056
37 25 10.575
37 26 5.35505
37 29 3.87345
37 30 2.64591
37 31 18.9255
37 32 2.33443
37 34 1.17323
37 35 1.17323
37 36 63.6976
37 38 9.32104
37 39 9.32104
37 41 5.78231
37 68 3.71424
37 69 2.96184
37 70 1.71636
37 74 1.47667
37 75 1.47667
37 76 1.48579
37 77 1.48579
37 101 1.38346
37 105 2.27849
37 106 2.8668
37 107 2.26741
37 109 4.13386
37 112 1.42899
37 113 1.42899
37 114 1.43757
37 115 1.43757
37 117 4.16167
37 118 4.16167
38 6 1.61609
38 7 2.43853
38 16 2.04396
38 17 1.17933
38 18 1.65587
38 19 4.92805
38 20 6.80344
38 22 3.70818
38 23 4.28575
38 25 6.91495
38 26 3.5415
38 29 2.53667
38 30 1.76222
38 31 12.4463
38 32 1.5548
38 36 6.20494
38 37 6.20494
38 39 81.679
38 41 3.67439
38 68 2.35278
38 69 1.87461
38 70 1.09696
38 105 1.47522
38 106 1.88482
38 107 1.46778
38 109 2.67197
38 117 2.79022
38 118 2.79022
39 6 1.61609
39 7 2.43853
39 16 2.04396
39 17 1.17933
39 18 1.65587
39 19 4.92805
39 20 6.80344
39 22 3.70818
39 23 4.28575
39 25 6.91495
39 26 3.5415
39 29 2.53667
39 30 1.76222
39 31 12.4463
39 32 1.5548
39 36 6.20494
39 37 6.20494
39 38 81.679
39 41 3.67439
39 68 2.35278
39 69 1.87461
39 70 1.09696
39 105 1.47522
39 106 1.88482
39 107 1.46778
39 109 2.67197
39 117 2.79022
39 118 2.79022
40 7 1.42508
40 26 24.7555
40 27 13.119
40 28 13.119
40 29 1.48256
40 30 26.4822
40 31 1.06089
40 32 68.0605
40 33 95.045
40 34 34.1167
40 35 34.1167
40 69 1.43041
40 101 1.0757
40 105 1.61032
40 106 2.33583
40 107 1.59945
40 109 2.87236
40 112 1.16426
40 113 1.16426
40 114 1.17119
40 115 1.17119
40 117 3.97517
40 118 3.97517
41 6 1.96223
41 7 2.95959
41 11 12.2875
41 12 12.3154
41 13 5.92079
41 14 6.0993
41 16 3.76429
41 18 4.48123
41 19 9.02448
41 20 10.3461
41 21 15.3862
41 22 23.6987
41 23 35.957
41 24 60.7659
41 25 10.5208
41 26 13.0895
41 27 5.00383
41 28 5.00383
41 29 3.08184
41 30 9.64527
41 31 33.5839
41 32 8.50897
41 33 1.30857
41 34 4.27621
41 35 4.27621
41 36 16.7166
41 37 16.7166
41 38 16.7967
41 39 16.7967
41 40 1.31905
41 43 1.92685
41 44 1.00293
41 47 3.99067
41 48 6.37197
41 54 3.07694
41 56 2.08569
41 58 2.61438
41 59 7.81063
41 60 1.29588
41 62 1.30866
41 63 7.95536
41 64 30.2784
41 65 19.136
41 66 19.136
41 67 6.62796
41 68 56.0039
41 69 17.5309
41 70 34.3341
41 71 4.42333
41 72 17.3545
41 73 17.3545
41 74 8.74136
41 75 8.74136
41 76 8.79625
41 77 8.79625
41 78 4.46892
41 84 1.2583
41 85 1.89613
41 92 1.43945
41 94 1.132
41 95 2.95483
41 96 3.73163
41 98 2.57777
41 99 2.97671
41 100 3.79785
41 101 6.68345
41 102 4.32807
41 103 4.32807
41 104 1.97269
41 105 11.0781
41 106 13.8042
41 107 11.0245
41 109 20.1173
41 110 4.52299
41 111 4.52299
41 112 6.88158
41 113 6.88158
41 114 6.92348
41 115 6.92348
41 117 19.7915
41 118 19.7915
42 11 1.73215
42 12 1.69777
42 43 16.4258
42 44 26.9519
42 45 20.3584
42 46 22.9557
42 47 10.7342
42 48 4.33539
42 49 20.1227
42 50 26.4137
42 51 22.1042
42 52 1.29802
42 53 1.26823
42 54 4.54366
42 55 4.1995
42 56 1.06205
42 57 1.46576
42 59 3.09747
42 60 1.06209
42 61 1.68653
42 62 1.44228
42 63 3.15405
42 64 4.25034
42 67 4.50963
42 68 1.46937
42 69 2.43976
42 74 1.21642
42 75 1.21642
42 76 1.22397
42 77 1.22397
43 11 3.86423
43 12 3.78267
43 13 1.85956
43 14 1.918
43 20 1.43847
43 22 1.05486
43 25 1.46228
43 30 1.18489
43 32 1.04533
43 41 1.60696
43 42 31.1552
43 44 21.3526
43 45 17.4169
43 46 13.6663
43 47 25.0111
43 48 24.867
43 49 17.3124
43 50 20.9891
43 51 13.1053
43 52 2.81884
43 53 2.84132
43 55 2.76433
43 56 16.815
43 57 15.0275
43 58 1.82025
43 59 14.3979
43 60 4.96776
43 61 7.4363
43 62 6.80535
43 63 14.6544
43 64 21.0049
43 65 2.22354
43 66 2.22354
43 67 25.6127
43 68 6.01336
43 69 11.7588
43 70 3.92353
43 72 1.9726
43 73 1.9726
43 74 5.8623
43 75 5.8623
43 76 5.89831
43 77 5.89831
43 101 1.06408
43 105 1.80394
43 106 2.17109
43 107 1.79604
43 109 3.28828
43 112 1.08228
43 113 1.08228
43 114 1.08884
43 115 1.08884
43 117 2.96615
43 118 2.96615
44 11 4.55479
44 12 4.31342
44 13 2.18576
44 14 2.2661
44 17 1.15395
44 18 1.14892
44 20 1.13542
44 22 1.1002
44 24 1.54424
44 25 1.15398
44 41 2.14929
44 42 72.0222
44 43 27.8836
44 45 28.2099
44 46 43.8801
44 47 12.2134
44 48 11.7878
44 49 27.6705
44 50 98.828
44 51 41.9135
44 52 9.78556
44 53 9.96612
44 54 14.4489
44 55 15.6257
44 56 24.4036
44 57 23.2442
44 58 1.36713
44 59 8.69427
44 60 3.18904
44 61 4.53644
44 62 4.35495
44 63 8.84438
44 64 11.7669
44 65 1.02962
44 66 1.02962
44 67 12.2514
44 68 4.16004
44 69 6.71268
44 70 1.81726
44 74 3.34661
44 75 3.34661
44 76 3.36719
44 77 3.36719
44 105 1.47341
44 106 1.59909
44 107 1.4687
44 109 2.71356
44 117 1.84093
44 118 1.84093
45 42 52.9503
45 43 25.5713
45 44 27.5867
45 46 23.0144
45 47 23.7138
45 48 2.76354
45 49 74.494
45 50 27.0273
45 51 22.1279
45 52 12.5994
45 53 12.4817
45 54 20.9598
45 55 20.1005
45 56 18.3029
45 57 18.8024
45 59 1.83324
45 60 1.18683
45 62 1.81429
45 63 1.83207
45 64 2.44503
45 67 2.8171
45 69 1.26064
46 11 3.13924
46 12 2.9298
46 13 1.5073
46 14 1.56124
46 24 1.18792
46 41 1.55464
46 42 52.876
46 43 16.2831
46 44 36.743
46 45 21.0476
46 47 6.05312
46 48 7.62571
46 49 20.6919
46 50 35.8973
46 51 71.5792
46 52 4.85738
46 53 5.11429
46 54 10.678
46 55 11.3799
46 56 17.1555
46 57 16.8857
46 59 5.88402
46 60 1.92568
46 61 3.67295
46 62 2.3851
46 63 6.00861
46 64 7.82008
46 67 7.93358
46 68 2.84477
46 69 4.43585
46 70 1.16925
46 74 2.21154
46 75 2.21154
46 76 2.22519
46 77 2.22519
46 105 1.0495
46 106 1.10162
46 107 1.04652
46 109 1.93882
46 117 1.18638
46 118 1.18638
47 6 1.67137
47 7 2.56983
47 11 14.6733
47 12 14.5446
47 13 7.02732
47 14 7.3123
47 15 2.87492
47 16 2.76794
47 17 3.5118
47 18 3.40114
47 19 2.64069
47 20 3.79077
47 21 2.88474
47 22 3.3332
47 23 2.31817
47 24 3.45061
47 25 3.85288
47 26 1.47812
47 27 2.07663
47 28 2.07663
47 29 2.67514
47 30 2.59299
47 32 2.28757
47 34 1.14964
47 35 1.14964
47 41 5.85192
47 42 21.2954
47 43 30.1816
47 44 8.97851
47 45 16.0886
47 46 5.28287
47 48 41.7406
47 49 15.892
47 50 8.81128
47 51 5.07551
47 52 7.51501
47 53 7.36894
47 54 32.955
47 55 29.9379
47 56 1.52625
47 57 5.0449
47 58 3.31891
47 59 28.2779
47 60 9.42293
47 61 15.6138
47 62 12.7421
47 63 28.8163
47 64 39.4615
47 65 3.6874
47 66 3.6874
47 67 43.3176
47 68 13.0914
47 69 22.5903
47 70 6.50744
47 72 3.27182
47 73 3.27182
47 74 11.2619
47 75 11.2619
47 76 11.3308
47 77 11.3308
47 78 1.00725
47 95 1.0625
47 96 1.43203
47 100 1.45743
47 101 2.38997
47 102 1.58117
47 103 1.58117
47 105 4.02335
47 106 4.89521
47 107 4.00516
47 109 7.32532
47 110 1.65157
47 111 1.65157
47 112 2.44028
47 113 2.44028
47 114 2.45509
47 115 2.45509
47 117 6.79266
47 118 6.79266
48 6 2.02519
48 7 2.79177
48 11 30.243
48 12 31.0266
48 13 14.5238
48 14 15.3846
48 15 6.20334
48 16 6.85739
48 17 6.97893
48 18 7.65671
48 19 11.2219
48 20 2.0567
48 21 10.1922
48 22 4.44201
48 24 21.1888
48 25 2.0876
48 26 3.01584
48 29 2.91044
48 30 1.12781
48 31 6.30192
48 36 3.13765
48 37 3.13765
48 38 3.15339
48 39 3.15339
48 41 10.7077
48 42 11.3441
48 43 23.6052
48 44 11.6995
48 45 2.96
48 46 7.82184
48 47 45.8754
48 49 2.96381
48 50 11.5514
48 51 7.53424
48 52 3.52248
48 53 2.7841
48 54 25.2765
48 55 20.9755
48 56 13.4795
48 57 8.90783
48 58 3.8793
48 59 35.1736
48 60 12.0028
48 61 18.1336
48 62 15.2026
48 63 35.9844
48 64 61.6154
48 65 8.99028
48 66 8.99028
48 67 101.283
48 68 7.46296
48 69 31.318
48 70 15.8757
48 71 2.44542
48 72 7.98536
48 73 7.98536
48 74 15.5851
48 75 15.5851
48 76 15.6567
48 77 15.6567
48 78 2.46949
48 96 1.2266
48 100 1.24805
48 101 1.04875
48 105 2.14502
48 106 1.89722
48 107 2.1422
48 109 4.01839
48 117 1.24266
48 118 1.24266
49 11 2.14845
49 12 2.44891
49 13 1.02134
49 14 1.07959
49 42 69.3374
49 43 32.6537
49 44 36.4683
49 45 99.7802
49 46 30.3294
49 47 26.6313
49 48 4.69996
49 50 35.9345
49 51 29.3102
49 52 12.5153
49 53 12.7902
49 54 29.2699
49 55 29.1877
49 56 26.5447
49 57 27.0462
49 59 2.64747
49 61 1.41845
49 62 1.02121
49 63 2.70093
49 64 4.07419
49 67 4.89995
49 68 1.18047
49 69 2.45282
49 74 1.223
49 75 1.223
49 76 1.23065
49 77 1.23065
49 117 1.13857
49 118 1.13857
50 11 3.75521
50 12 3.95501
50 13 1.79372
50 14 1.87861
50 41 1.11733
50 42 63.7088
50 43 23.8293
50 44 87.6813
50 45 24.2421
50 46 39.3139
50 47 10.6133
50 48 9.8946
50 49 23.9196
50 51 38.3125
50 52 9.69765
50 53 9.39809
50 54 11.9886
50 55 12.9656
50 56 19.1015
50 57 17.7994
50 59 6.26035
50 60 2.27313
50 61 2.60631
50 62 3.48033
50 63 6.34564
50 64 9.04757
50 67 10.2892
50 68 2.86012
50 69 5.27768
50 70 1.56062
50 74 2.63155
50 75 2.63155
50 76 2.64804
50 77 2.64804
50 106 1.03678
50 109 1.18626
50 117 1.8691
50 118 1.8691
51 11 6.64002
51 12 8.02484
51 13 3.148
51 14 3.35265
51 15 1.02107
51 17 1.13066
51 20 1.53311
51 25 1.55856
51 26 1.25825
51 27 1.06509
51 28 1.06509
51 30 1.50816
51 31 1.14767
51 32 1.33062
51 42 67.5611
51 43 24.7336
51 44 41.8351
51 45 29.5443
51 46 97.8978
51 47 5.85531
51 48 11.8347
51 49 29.3402
51 50 41.7091
51 52 3.5216
51 53 2.63609
51 54 16.0527
51 55 16.5537
51 56 20.6136
51 57 21.3889
51 58 1.18059
51 59 5.79082
51 61 4.42031
51 63 5.93806
51 64 9.66451
51 65 1.10163
51 66 1.10163
51 67 12.413
51 68 2.48006
51 69 6.09741
51 70 1.94415
51 74 3.04076
51 75 3.04076
51 76 3.06022
51 77 3.06022
51 96 1.07208
51 98 1.26189
51 99 1.52451
51 100 1.09077
51 109 1.17175
51 117 3.66772
51 118 3.66772
52 11 1.40492
52 12 1.04692
52 41 1.12965
52 42 4.84261
52 43 8.50752
52 44 13.6067
52 45 14.7175
52 46 10.1343
52 47 13.9963
52 48 4.17278
52 49 14.5977
52 50 13.3402
52 51 9.75193
52 53 95.8252
52 54 34.376
52 55 35.1072
52 56 38.7123
52 57 38.4423
52 59 3.66125
52 60 1.52993
52 61 1.9533
52 62 1.97256
52 63 3.72078
52 64 4.60478
52 67 4.33131
52 68 1.81091
52 69 2.53651
52 74 1.26464
52 75 1.26464
52 76 1.27247
52 77 1.27247
52 109 1.64583
53 11 1.63834
53 12 2.08137
53 42 5.1248
53 43 8.79456
53 44 13.6019
53 45 15.6879
53 46 10.2492
53 47 14.573
53 48 3.54781
53 49 15.3994
53 50 13.3933
53 51 10.1863
53 52 85.5714
53 54 30.3236
53 55 30.6308
53 56 31.7682
53 57 31.1773
53 59 1.44417
53 63 1.45331
53 64 2.65043
53 67 3.69869
53 69 1.68546
53 117 1.04499
53 118 1.04499
54 11 6.48988
54 12 6.58905
54 13 3.09869
54 14 3.25502
54 15 1.261
54 16 1.35024
54 17 1.4739
54 18 1.56663
54 19 1.67865
54 20 1.07545
54 21 1.54457
54 22 1.39543
54 24 2.37061
54 25 1.09289
54 31 1.04084
54 41 3.33976
54 42 7.25824
54 43 1.82563
54 44 9.0128
54 45 14.2571
54 46 6.93411
54 47 23.5004
54 48 15.1883
54 49 13.8854
54 50 8.86812
54 51 6.67783
54 52 14.423
54 53 14.3724
54 55 47.8147
54 56 36.8909
54 57 6.13185
54 58 38.5059
54 59 24.5085
54 60 32.6492
54 61 9.39431
54 62 6.04349
54 63 24.9059
54 64 15.692
54 65 1.29125
54 66 1.29125
54 67 15.8563
54 68 5.85158
54 69 4.27829
54 70 2.2797
54 72 1.14616
54 73 1.14616
54 74 2.13282
54 75 2.13282
54 76 2.14583
54 77 2.14583
55 7 1.19923
55 11 5.99065
55 12 6.15488
55 13 2.87608
55 14 2.98978
55 15 1.13128
55 17 1.40228
55 18 1.21352
55 20 1.93198
55 22 1.21662
55 25 1.96423
55 26 1.39652
55 27 1.32259
55 28 1.32259
55 29 1.24865
55 30 1.81361
55 31 1.17068
55 32 1.60015
55 41 1.04133
55 42 6.91687
55 43 3.02544
55 44 9.82461
55 45 14.532
55 46 7.50368
55 47 21.7788
55 48 12.688
55 49 14.1246
55 50 9.67369
55 51 7.23681
55 52 15.0125
55 53 14.905
55 54 48.428
55 56 6.86956
55 57 39.6125
55 58 36.7806
55 59 5.10918
55 60 39.6862
55 61 20.2977
55 62 2.6737
55 63 5.18927
55 64 11.4193
55 65 1.1799
55 66 1.1799
55 67 13.2533
55 68 3.3771
55 69 20.1939
55 70 2.08258
55 72 1.04698
55 73 1.04698
55 74 10.0768
55 75 10.0768
55 76 10.1466
55 77 10.1466
55 101 1.38135
55 105 2.20065
55 106 2.91152
55 107 2.18864
55 109 3.97023
55 112 1.45119
55 113 1.45119
55 114 1.45982
55 115 1.45982
55 117 4.49518
55 118 4.49518
56 11 3.20212
56 12 3.46101
56 13 1.51856
56 14 1.61538
56 24 1.21788
56 41 1.8784
56 42 1.3792
56 43 11.6638
56 44 13.2285
56 45 10.8128
56 46 9.61997
56 48 8.15017
56 49 10.761
56 50 12.9083
56 51 9.09124
56 52 13.6244
56 53 13.878
56 54 33.6841
56 55 7.55548
56 57 56.0321
56 58 38.8151
56 59 20.0094
56 60 35.5657
56 61 13.5039
56 62 3.41763
56 63 20.3543
56 64 8.39178
56 67 8.49861
56 68 3.18764
56 69 9.47073
56 70 1.19092
56 74 4.71966
56 75 4.71966
56 76 4.74702
56 77 4.74702
56 109 1.30564
57 11 2.67662
57 12 3.00422
57 13 1.28444
57 14 1.33506
57 20 1.19529
57 25 1.2154
57 26 1.29604
57 30 1.44106
57 31 1.4739
57 32 1.27147
57 42 2.02674
57 43 11.1916
57 44 13.4531
57 45 11.6237
57 46 9.83286
57 47 2.98986
57 48 5.65834
57 49 11.5832
57 50 13.1269
57 51 9.33384
57 52 14.305
57 53 14.6131
57 54 6.81905
57 55 36.9995
57 56 57.5037
57 58 39.4262
57 59 11.8404
57 60 39.1572
57 61 19.0071
57 63 12.0677
57 64 3.94375
57 67 5.89968
57 69 17.0493
57 70 1.01072
57 74 8.50924
57 75 8.50924
57 76 8.56957
57 77 8.56957
57 105 1.30824
57 106 1.95998
57 107 1.29878
57 109 2.32358
57 117 3.43763
57 118 3.43763
58 11 1.68914
58 12 1.85801
58 20 1.70226
58 24 1.9848
58 25 1.7311
58 26 2.34184
58 27 1.61758
58 28 1.61758
58 30 2.444
58 31 2.98527
58 32 2.15639
58 34 1.08377
58 35 1.08377
58 36 1.48559
58 37 1.48559
58 38 1.49242
58 39 1.49242
58 41 2.27047
58 43 1.35989
58 47 2.48906
58 48 2.07753
58 54 31.1216
58 55 28.6385
58 56 32.2538
58 57 30.5875
58 59 35.1827
58 60 62.3727
58 61 2.62558
58 62 36.5243
58 63 35.9128
58 67 2.17182
58 68 1.56053
58 69 35.3242
58 74 17.6357
58 75 17.6357
58 76 17.7653
58 77 17.7653
58 101 1.792
58 102 1.11072
58 103 1.11072
58 105 2.87786
58 106 3.76175
58 107 2.86266
58 109 5.19946
58 110 1.1622
58 111 1.1622
58 112 1.87493
58 113 1.87493
58 114 1.88604
58 115 1.88604
58 117 5.72544
58 118 5.72544
59 11 7.95771
59 12 8.29426
59 13 3.75874
59 14 4.03959
59 15 1.5465
59 16 2.22571
59 17 1.5934
59 18 2.29864
59 19 3.99665
59 21 2.8203
59 22 1.73968
59 24 6.0407
59 26 3.62743
59 27 1.8238
59 28 1.8238
59 30 3.10823
59 31 5.84521
59 32 2.74168
59 34 1.37776
59 35 1.37776
59 36 2.90996
59 37 2.90996
59 38 2.9243
59 39 2.9243
59 41 8.23126
59 42 4.81501
59 43 9.72264
59 44 5.14882
59 45 1.6061
59 46 3.44599
59 47 20.5614
59 48 22.4089
59 49 1.57697
59 50 5.04481
59 51 3.29294
59 52 1.01287
59 53 1.34053
59 54 26.345
59 55 5.72513
59 56 21.5834
59 57 11.7386
59 58 47.6222
59 60 10.1965
59 61 27.8131
59 62 37.8763
59 63 96.727
59 64 26.1903
59 65 1.69515
59 66 1.69515
59 67 23.4141
59 68 11.4629
59 69 61.7451
59 70 2.99419
59 72 1.50546
59 73 1.50546
59 74 30.6941
59 75 30.6941
59 76 30.8072
59 77 30.8072
59 95 1.14696
59 96 1.69583
59 100 1.72562
59 101 2.55582
59 102 1.74709
59 103 1.74709
59 105 4.40728
59 106 5.167
59 107 4.38835
59 109 8.05264
59 110 1.82306
59 111 1.82306
59 112 2.57634
59 113 2.57634
59 114 2.59247
59 115 2.59247
59 117 6.79369
59 118 6.79369
60 11 2.44637
60 12 2.60307
60 13 1.16536
60 14 1.22739
60 42 1.3712
60 43 2.73811
60 44 1.47922
60 46 1.01616
60 47 5.42453
60 48 5.67629
60 50 1.45299
60 51 1.0379
60 54 24.5242
60 55 29.9596
60 56 27.1722
60 57 30.1382
60 58 59.2326
60 59 7.15959
60 61 39.1349
60 62 39.9908
60 63 7.30883
60 64 5.50672
60 67 5.91666
60 68 1.9031
61 6 1.08251
61 7 1.43261
61 11 5.4926
61 12 6.01864
61 13 2.64556
61 14 2.73755
61 17 1.22483
61 20 2.62501
61 24 1.64446
61 25 2.66982
61 26 2.85242
61 27 2.17213
61 28 2.17213
61 29 1.49183
61 30 3.17732
61 31 3.254
61 32 2.80387
61 34 1.40928
61 35 1.40928
61 36 1.61913
61 37 1.61913
61 38 1.6264
61 39 1.6264
61 41 1.30841
61 42 2.81867
61 43 5.6081
61 44 3.16642
61 45 1.05361
61 46 2.13972
61 47 11.8795
61 48 11.7259
61 49 1.01811
61 50 3.10436
61 51 2.0757
61 54 10.5452
61 55 22.7191
61 56 14.2804
61 57 20.5196
61 58 3.25691
61 59 28.2761
61 60 56.4009
61 62 53.5618
61 63 28.9215
61 64 8.17005
61 65 1.19909
61 66 1.19909
61 67 12.2446
61 68 1.11512
61 69 39.3985
61 70 2.11609
61 72 1.06369
61 73 1.06369
61 74 19.6998
61 75 19.6998
61 76 19.8704
61 77 19.8704
61 98 1.29278
61 99 1.51825
61 101 2.13499
61 102 1.2318
61 103 1.2318
61 105 3.25895
61 106 4.5935
61 107 3.23887
61 109 5.83615
61 110 1.29151
61 111 1.29151
61 112 2.28906
61 113 2.28906
61 114 2.30226
61 115 2.30226
61 117 7.59479
61 118 7.59479
62 6 1.00619
62 7 1.33526
62 11 4.34496
62 12 4.82142
62 13 2.09851
62 14 2.15721
62 20 2.53207
62 24 2.16738
62 25 2.57531
62 26 3.02983
62 27 2.21007
62 28 2.21007
62 29 1.39032
62 30 3.27831
62 31 3.62993
62 32 2.89296
62 34 1.45405
62 35 1.45405
62 36 1.80617
62 37 1.80617
62 38 1.81426
62 39 1.81426
62 41 2.06124
62 42 2.16895
62 43 4.29999
62 44 2.4725
62 46 1.67446
62 47 9.1231
62 48 8.78137
62 50 2.42521
62 51 1.62978
62 54 6.37792
62 55 3.04796
62 56 4.16582
62 58 46.0879
62 59 35.4838
62 60 52.801
62 61 48.9903
62 63 36.3278
62 64 5.03918
62 67 9.16105
62 69 42.7728
62 70 1.68723
62 74 21.3877
62 75 21.3877
62 76 21.5735
62 77 21.5735
62 98 1.28806
62 99 1.51045
62 101 2.2348
62 102 1.31027
62 103 1.31027
62 105 3.44996
62 106 4.78265
62 107 3.4295
62 109 6.19096
62 110 1.37319
62 111 1.37319
62 112 2.38334
62 113 2.38334
62 114 2.3971
62 115 2.3971
62 117 7.77263
62 118 7.77263
63 11 8.63118
63 12 9.42589
63 13 4.08146
63 14 4.40292
63 15 1.60035
63 16 2.25314
63 17 1.61639
63 18 2.29374
63 19 4.00918
63 21 2.87779
63 22 1.70543
63 24 5.63646
63 26 3.47677
63 27 1.75095
63 28 1.75095
63 30 2.98255
63 31 5.63852
63 32 2.63034
63 34 1.3217
63 35 1.3217
63 36 2.8079
63 37 2.8079
63 38 2.82246
63 39 2.82246
63 41 7.92323
63 42 5.09696
63 43 10.1376
63 44 5.61019
63 45 1.87455
63 46 3.7863
63 47 21.4313
63 48 22.876
63 49 1.80069
63 50 5.48579
63 51 3.66169
63 53 1.57674
63 54 27.3946
63 55 5.85872
63 56 22.9958
63 57 12.0946
63 58 49.6024
63 59 100.206
63 60 10.3444
63 61 28.4727
63 62 39.5958
63 64 26.3701
63 65 1.719
63 66 1.719
63 67 24.0485
63 68 11.2159
63 69 64.1904
63 70 3.04631
63 72 1.53263
63 73 1.53263
63 74 31.7984
63 75 31.7984
63 76 31.821
63 77 31.821
63 85 1.22722
63 95 1.29114
63 96 2.22437
63 100 2.26269
63 101 2.82579
63 102 2.05103
63 103 2.05103
63 104 1.27628
63 105 5.09512
63 106 5.56849
63 107 5.07547
63 109 9.36858
63 110 2.13651
63 111 2.13651
63 112 2.77743
63 113 2.77743
63 114 2.7956
63 115 2.7956
63 117 6.5108
63 118 6.5108
64 7 1.41012
64 19 5.06599
64 20 4.09369
64 21 4.82274
64 22 3.483
64 23 6.68633
64 24 16.7082
64 25 4.16273
64 26 2.18381
64 27 1.82562
64 28 1.82562
64 29 1.46743
64 30 2.59491
64 32 2.28921
64 34 1.15045
64 35 1.15045
64 41 10.1522
64 42 2.1044
64 43 4.28362
64 44 2.19392
64 46 1.46615
64 47 8.88768
64 48 12.3457
64 50 2.15321
64 51 1.40431
64 54 5.1699
64 55 3.71548
64 56 2.85433
64 57 1.31182
64 59 8.46528
64 60 2.3036
64 61 2.75871
64 62 1.95846
64 63 8.62041
64 65 27.1763
64 66 27.1763
64 67 12.8522
64 68 64.0725
64 69 11.1546
64 70 47.887
64 71 7.35931
64 72 24.0836
64 73 24.0836
64 74 5.5624
64 75 5.5624
64 76 5.59772
64 77 5.59772
64 78 7.42888
64 96 1.20045
64 100 1.22174
64 101 2.13288
64 102 1.38449
64 103 1.38449
64 105 3.54143
64 106 4.40132
64 107 3.52439
64 109 6.43283
64 110 1.44675
64 111 1.44675
64 112 2.19414
64 113 2.19414
64 114 2.20751
64 115 2.20751
64 117 6.28839
64 118 6.28839
65 19 1.64666
65 20 1.47937
65 21 2.0577
65 22 2.32226
65 23 3.82342
65 24 7.79221
65 25 1.50468
65 31 2.31516
65 36 1.15243
65 37 1.15243
65 38 1.15798
65 39 1.15798
65 41 8.75771
65 47 1.11131
65 48 2.66277
65 64 35.4908
65 66 52.3139
65 67 2.76845
65 68 35.7161
65 70 39.2315
65 71 6.03216
65 72 19.7526
65 73 19.7526
65 78 6.10301
66 19 1.64666
66 20 1.47937
66 21 2.0577
66 22 2.32226
66 23 3.82342
66 24 7.79221
66 25 1.50468
66 31 2.31516
66 36 1.15243
66 37 1.15243
66 38 1.15798
66 39 1.15798
66 41 8.75771
66 47 1.11131
66 48 2.66277
66 64 35.4908
66 65 52.3139
66 67 2.76845
66 68 35.7161
66 70 39.2315
66 71 6.03216
66 72 19.7526
66 73 19.7526
66 78 6.10301
67 6 1.98561
67 7 2.73684
67 11 29.6266
67 12 30.3959
67 13 14.2278
67 14 15.071
67 15 6.07564
67 16 6.71658
67 17 6.83563
67 18 7.49982
67 19 10.9837
67 20 2.02191
67 21 9.97444
67 22 4.35964
67 24 20.7201
67 25 2.0523
67 26 2.95309
67 29 2.85316
67 30 1.10271
67 31 6.1776
67 36 3.07575
67 37 3.07575
67 38 3.09118
67 39 3.09118
67 41 10.5179
67 42 11.1149
67 43 23.1286
67 44 11.4624
67 45 2.89969
67 46 7.66331
67 47 44.9481
67 48 97.341
67 49 2.90343
67 50 11.3173
67 51 7.38153
67 52 3.452
67 53 2.72715
67 54 24.7649
67 55 20.551
67 56 13.206
67 57 8.72706
67 58 3.80131
67 59 34.4605
67 60 11.7601
67 61 17.7659
67 62 14.8939
67 63 35.2548
67 64 60.3189
67 65 8.85201
67 66 8.85201
67 68 7.36068
67 69 30.6831
67 70 15.6209
67 71 2.40616
67 72 7.85722
67 73 7.85722
67 74 15.2692
67 75 15.2692
67 76 15.3393
67 77 15.3393
67 78 2.42986
67 96 1.20254
67 100 1.22358
67 101 1.02678
67 105 2.10113
67 106 1.85679
67 107 2.09838
67 109 3.93642
67 117 1.21186
67 118 1.21186
68 11 3.82506
68 12 4.08848
68 13 1.82156
68 14 1.92694
68 16 1.24573
68 18 1.35549
68 19 1.28548
68 20 1.81886
68 21 3.16805
68 22 5.79037
68 23 8.46816
68 24 13.2976
68 25 1.84989
68 26 4.33307
68 27 1.95483
68 28 1.95483
68 30 3.49099
68 31 9.72669
68 32 3.07869
68 34 1.54698
68 35 1.54698
68 36 4.84526
68 37 4.84526
68 38 4.87167
68 39 4.87167
68 41 24.7535
68 43 1.78542
68 44 1.06957
68 47 3.9019
68 48 1.66782
68 50 1.04917
68 54 2.65137
68 55 1.4584
68 56 1.69452
68 58 1.0699
68 59 5.44281
68 60 1.10357
68 63 5.5374
68 64 84.6273
68 65 36.4299
68 66 36.4299
68 67 1.73667
68 69 9.31624
68 70 65.2997
68 71 9.88033
68 72 32.7257
68 73 32.7257
68 74 4.64924
68 75 4.64924
68 76 4.68203
68 77 4.68203
68 78 9.8967
68 95 1.21191
68 96 1.72168
68 100 1.75167
68 101 2.70903
68 102 1.82567
68 103 1.82567
68 105 4.62391
68 106 5.50988
68 107 4.60204
68 109 8.43091
68 110 1.90519
68 111 1.90519
68 112 2.74801
68 113 2.74801
68 114 2.76582
68 115 2.76582
68 117 7.43074
68 118 7.43074
69 6 1.47962
69 7 2.2344
69 11 2.70788
69 12 2.75621
69 13 1.19039
69 14 1.4574
69 16 2.17316
69 18 1.83469
69 19 5.93617
69 20 5.06659
69 21 3.21547
69 24 10.0534
69 25 5.15184
69 26 9.01597
69 27 5.67033
69 28 5.67033
69 29 2.32468
69 30 8.85691
69 31 12.5115
69 32 7.81248
69 33 1.20151
69 34 3.92596
69 35 3.92596
69 36 6.22819
69 37 6.22819
69 38 6.25847
69 39 6.25847
69 40 1.211
69 41 12.6216
69 42 2.51108
69 43 5.10621
69 44 2.62976
69 46 1.7586
69 47 10.6072
69 48 13.1078
69 50 2.58076
69 51 1.68582
69 54 3.21261
69 55 13.8274
69 56 6.32121
69 57 11.3267
69 58 30.1092
69 59 39.7149
69 61 25.7994
69 62 30.1152
69 63 40.5115
69 64 22.8352
69 67 13.6487
69 68 13.4389
69 74 39.073
69 75 39.073
69 76 39.308
69 77 39.308
69 84 1.29609
69 85 1.96042
69 92 1.47435
69 94 1.15446
69 95 3.03983
69 96 3.85363
69 98 2.63365
69 99 3.0408
69 100 3.92162
69 101 6.87034
69 102 4.45486
69 103 4.45486
69 104 2.03937
69 105 11.4
69 106 14.185
69 107 11.3432
69 109 20.6994
69 110 4.65453
69 111 4.65453
69 112 7.07269
69 113 7.07269
69 114 7.11686
69 115 7.11686
69 117 20.3094
69 118 20.3094
70 11 1.31472
70 12 1.19585
70 19 2.22381
70 20 2.22859
70 21 2.9732
70 22 3.78112
70 23 6.02036
70 24 11.1574
70 25 2.26567
70 26 1.16731
70 31 4.13515
70 36 2.05762
70 37 2.05762
70 38 2.0669
70 39 2.0669
70 41 14.3911
70 47 1.64095
70 48 3.61139
70 59 1.32964
70 63 1.35409
70 64 55.1387
70 65 35.1495
70 66 35.1495
70 67 3.75974
70 68 57.254
70 71 23.6251
70 72 48.2284
70 73 48.2284
70 78 24.0564
70 117 1.05896
70 118 1.05896
71 21 1.17755
71 22 1.77179
71 23 2.70308
71 24 4.36144
71 31 2.1643
71 36 1.07707
71 37 1.07707
71 38 1.08204
71 39 1.08204
71 41 6.85274
71 48 1.25359
71 63 1.00766
71 64 23.254
71 65 14.5045
71 66 14.5045
71 67 1.3044
71 68 25.2683
71 69 1.02544
71 70 67.3523
71 72 33.9126
71 73 33.9126
71 78 97.9502
72 22 1.18502
72 23 1.89215
72 24 3.53965
72 31 1.29082
72 41 4.51423
72 48 1.1433
72 64 17.0606
72 65 10.9303
72 66 10.9303
72 67 1.18952
72 68 17.6634
72 70 30.1326
72 71 7.62682
72 73 69.4385
72 78 7.6997
73 22 1.18502
73 23 1.89215
73 24 3.53965
73 31 1.29082
73 41 4.51423
73 48 1.1433
73 64 17.0606
73 65 10.9303
73 66 10.9303
73 67 1.18952
73 68 17.6634
73 70 30.1326
73 71 7.62682
73 72 69.4385
73 78 7.6997
74 19 1.59194
74 20 1.3344
74 24 2.7423
74 25 1.35717
74 26 2.40555
74 27 1.5043
74 28 1.5043
74 30 2.35409
74 31 3.34651
74 32 2.07697
74 34 1.04384
74 35 1.04384
74 36 1.66542
74 37 1.66542
74 38 1.67313
74 39 1.67313
74 41 3.41017
74 43 1.35764
74 47 2.77677
74 48 3.49053
74 55 3.6169
74 56 1.70078
74 57 2.95393
74 58 7.94679
74 59 10.542
74 61 6.74432
74 62 7.89788
74 63 10.7339
74 64 6.14275
74 67 3.6305
74 68 3.62095
74 69 20.8772
74 75 68.8225
74 76 10.2564
74 77 10.2564
74 101 1.78875
74 102 1.14541
74 103 1.14541
74 105 2.94069
74 106 3.71005
74 107 2.92636
74 109 5.33391
74 110 1.19748
74 111 1.19748
74 112 1.84927
74 113 1.84927
74 114 1.86032
74 115 1.86032
74 117 5.40433
74 118 5.40433
75 19 1.59194
75 20 1.3344
75 24 2.7423
75 25 1.35717
75 26 2.40555
75 27 1.5043
75 28 1.5043
75 30 2.35409
75 31 3.34651
75 32 2.07697
75 34 1.04384
75 35 1.04384
75 36 1.66542
75 37 1.66542
75 38 1.67313
75 39 1.67313
75 41 3.41017
75 43 1.35764
75 47 2.77677
75 48 3.49053
75 55 3.6169
75 56 1.70078
75 57 2.95393
75 58 7.94679
75 59 10.542
75 61 6.74432
75 62 7.89788
75 63 10.7339
75 64 6.14275
75 67 3.6305
75 68 3.62095
75 69 20.8772
75 74 68.8225
75 76 10.2564
75 77 10.2564
75 101 1.78875
75 102 1.14541
75 103 1.14541
75 105 2.94069
75 106 3.71005
75 107 2.92636
75 109 5.33391
75 110 1.19748
75 111 1.19748
75 112 1.84927
75 113 1.84927
75 114 1.86032
75 115 1.86032
75 117 5.40433
75 118 5.40433
76 24 1.72518
76 26 1.48108
76 30 1.44434
76 31 2.06585
76 32 1.27432
76 36 1.02808
76 37 1.02808
76 38 1.03283
76 39 1.03283
76 41 2.12696
76 47 1.68361
76 48 2.14718
76 55 2.18511
76 56 1.05329
76 57 1.77865
76 58 4.83336
76 59 6.44637
76 61 4.07058
76 62 4.76812
76 63 6.56337
76 64 3.81824
76 67 2.23321
76 68 2.25524
76 69 12.8685
76 74 6.42336
76 75 6.42336
76 77 82.7808
76 101 1.07335
76 105 1.74944
76 106 2.23626
76 107 1.74064
76 109 3.16858
76 112 1.11465
76 113 1.11465
76 114 1.12131
76 115 1.12131
76 117 3.31228
76 118 3.31228
77 24 1.72518
77 26 1.48108
77 30 1.44434
77 31 2.06585
77 32 1.27432
77 36 1.02808
77 37 1.02808
77 38 1.03283
77 39 1.03283
77 41 2.12696
77 47 1.68361
77 48 2.14718
77 55 2.18511
77 56 1.05329
77 57 1.77865
77 58 4.83336
77 59 6.44637
77 61 4.07058
77 62 4.76812
77 63 6.56337
77 64 3.81824
77 67 2.23321
77 68 2.25524
77 69 12.8685
77 74 6.42336
77 75 6.42336
77 76 82.7808
77 101 1.07335
77 105 1.74944
77 106 2.23626
77 107 1.74064
77 109 3.16858
77 112 1.11465
77 113 1.11465
77 114 1.12131
77 115 1.12131
77 117 3.31228
77 118 3.31228
78 19 1.24011
78 21 1.44055
78 22 1.38787
78 23 2.40016
78 24 5.51003
78 25 1.00191
78 31 1.16912
78 41 5.13552
78 48 2.00518
78 64 23.1803
78 65 15.4399
78 66 15.4399
78 67 2.08543
78 68 22.2474
78 70 67.1986
78 71 95.0288
78 72 33.7038
78 73 33.7038
78 109 1.01927
79 80 15.095
79 81 25.6314
79 82 19.0989
79 83 21.57
79 84 10.5227
79 85 4.88559
79 86 18.8802
79 87 25.1368
79 88 20.7825
79 89 1.2117
79 90 1.19402
79 91 4.0282
79 92 3.73971
79 93 1.18385
79 94 1.52853
79 96 2.55047
79 98 1.35612
79 99 1.14989
79 100 2.59468
79 101 3.98031
79 104 5.08174
79 106 2.08473
79 112 1.0392
79 113 1.0392
79 114 1.04546
79 115 1.04546
80 30 1.00687
80 31 1.25904
80 41 1.00122
80 69 1.30214
80 79 22.1421
80 81 16.1158
80 82 11.7032
80 83 10.3849
80 84 15.1467
80 85 25.1185
80 86 11.7298
80 87 15.8482
80 88 9.93822
80 89 1.24115
80 90 1.21026
80 92 1.32343
80 93 13.3552
80 94 11.7341
80 95 1.59176
80 96 12.5143
80 97 4.36542
80 98 6.17808
80 99 5.9984
80 100 12.7179
80 101 19.876
80 102 2.85192
80 103 2.85192
80 104 25.5798
80 105 3.84574
80 106 10.4421
80 107 3.27088
80 109 1.87758
80 110 2.58131
80 111 2.58131
80 112 5.20474
80 113 5.20474
80 114 5.23577
80 115 5.23577
80 117 2.3526
80 118 2.3526
81 31 1.03015
81 79 72.8523
81 80 27.0911
81 82 28.4776
81 83 44.4419
81 84 13.4656
81 85 14.0527
81 86 27.9429
81 87 98.8967
81 88 42.4923
81 89 9.97214
81 90 10.0774
81 91 15.246
81 92 16.3319
81 93 24.1022
81 94 23.0439
81 95 1.19944
81 96 7.75182
81 97 2.84531
81 98 3.96303
81 99 3.84195
81 100 7.87676
81 101 11.6729
81 102 1.4639
81 103 1.4639
81 104 14.6007
81 105 2.64901
81 106 6.09921
81 107 2.317
81 110 1.30087
81 111 1.30087
81 112 3.04016
81 113 3.04016
81 114 3.05834
81 115 3.05834
81 117 2.10772
81 118 2.10772
82 79 51.7475
82 80 25.1628
82 81 26.7692
82 83 22.3561
82 84 22.3587
82 85 2.97842
82 86 72.6336
82 87 26.2416
82 88 21.5192
82 89 12.3785
82 90 12.3582
82 91 20.811
82 92 19.9028
82 93 17.7353
82 94 18.2648
82 96 2.19449
82 97 1.30236
82 99 2.04182
82 100 2.1969
82 101 2.7365
82 104 2.99495
82 105 1.01702
82 106 1.41478
82 117 1.23614
82 118 1.23614
83 79 52.2823
83 80 15.5811
83 81 36.8524
83 82 21.0285
83 84 6.92749
83 85 8.96644
83 86 20.6829
83 87 36.0274
83 88 71.0054
83 89 5.03275
83 90 5.21295
83 91 11.0945
83 92 11.7201
83 93 16.749
83 94 16.565
83 96 5.16056
83 97 1.67829
83 98 3.25332
83 99 2.02368
83 100 5.26719
83 101 7.55928
83 104 9.32958
83 105 1.83185
83 106 3.92356
83 107 1.6185
83 112 1.95574
83 113 1.95574
83 114 1.96747
83 115 1.96747
83 117 1.57664
83 118 1.57664
84 20 1.16052
84 24 1.30598
84 25 1.18006
84 26 1.63929
84 27 1.12995
84 28 1.12995
84 30 1.70862
84 31 2.12068
84 32 1.50737
84 36 1.05547
84 37 1.05547
84 38 1.06043
84 39 1.06043
84 41 1.65554
84 64 1.36993
84 68 1.37494
84 69 2.08875
84 74 1.04145
84 75 1.04145
84 76 1.04794
84 77 1.04794
84 79 11.7745
84 80 17.0425
84 81 5.36789
84 82 8.67139
84 83 3.19514
84 85 40.7651
84 86 8.71441
84 87 5.26953
84 88 3.0218
84 89 3.94578
84 90 3.78695
84 91 23.7024
84 92 21.8046
84 93 1.03764
84 94 3.60618
84 95 2.04229
84 96 20.715
84 97 6.64426
84 98 11.6202
84 99 8.59035
84 100 21.1078
84 101 32.6876
84 102 4.64928
84 103 4.64928
84 104 41.9862
84 105 6.40033
84 106 17.1208
84 107 5.45604
84 108 1.05039
84 109 2.92716
84 110 4.20341
84 111 4.20341
84 112 8.53365
84 113 8.53365
84 114 8.58448
84 115 8.58448
84 116 1.06036
84 117 3.99652
84 118 3.99652
85 6 1.06985
85 7 1.97059
85 11 1.76916
85 19 2.20447
85 20 3.64492
85 23 1.17891
85 24 3.08077
85 25 3.70461
85 26 4.82761
85 27 3.43876
85 28 3.43876
85 29 2.04992
85 30 5.14371
85 31 6.12218
85 32 4.53628
85 34 2.2794
85 35 2.2794
85 36 3.0481
85 37 3.0481
85 38 3.06335
85 39 3.06335
85 41 4.27501
85 58 1.06582
85 59 1.98158
85 63 2.01793
85 64 2.98989
85 68 3.42331
85 69 4.31631
85 74 2.15264
85 75 2.15264
85 76 2.16652
85 77 2.16652
85 79 16.8493
85 80 35.2143
85 81 17.6684
85 82 4.31533
85 83 11.8419
85 84 65.6694
85 86 4.37371
85 87 17.5088
85 88 11.4547
85 89 5.1291
85 90 4.55569
85 91 36.7305
85 92 30.9056
85 93 20.2818
85 94 14.0696
85 95 6.66916
85 96 50.8044
85 97 17.7883
85 98 27.5883
85 99 23.7302
85 100 52.0292
85 101 80.5605
85 102 10.5849
85 103 10.5849
85 104 101.73
85 105 16.5973
85 106 42.3298
85 107 14.3536
85 108 2.53686
85 109 4.59105
85 110 9.50685
85 111 9.50685
85 112 21.0477
85 113 21.0477
85 114 21.1295
85 115 21.1295
85 116 2.56373
85 117 12.0665
85 118 12.0665
86 79 68.5506
86 80 31.6972
86 81 36.6437
86 82 99.0739
86 83 30.4108
86 84 26.9915
86 85 5.7918
86 87 36.1306
86 88 29.4116
86 89 12.5522
86 90 12.7212
86 91 28.8004
86 92 28.7876
86 93 26.8527
86 94 27.3138
86 96 2.03458
86 100 2.07613
86 101 4.19439
86 104 6.04589
86 106 2.24858
86 109 1.66759
86 112 1.12093
86 113 1.12093
86 114 1.12774
86 115 1.12774
87 79 65.5546
87 80 23.6356
87 81 89.3403
87 82 24.9706
87 83 40.4293
87 84 11.9431
87 85 12.3235
87 86 24.6514
87 88 39.4169
87 89 9.76365
87 90 9.54694
87 91 13.1056
87 92 14.0377
87 93 19.2796
87 94 18.0633
87 96 5.54421
87 97 1.9585
87 98 2.10488
87 99 2.9367
87 100 5.61276
87 101 9.56147
87 102 1.6256
87 103 1.6256
87 104 12.8127
87 105 1.3809
87 106 5.06247
87 107 1.09748
87 109 1.89895
87 110 1.50059
87 111 1.50059
87 112 2.52371
87 113 2.52371
87 114 2.53907
87 115 2.53907
88 7 1.00357
88 20 1.50842
88 25 1.53347
88 26 1.39762
88 27 1.221
88 28 1.221
88 29 1.04438
88 30 1.7131
88 31 1.51834
88 32 1.51124
88 57 1.02622
88 61 1.86879
88 62 2.17547
88 64 1.29532
88 69 2.54364
88 74 1.26813
88 75 1.26813
88 76 1.27593
88 77 1.27593
88 79 67.9081
88 80 23.2181
88 81 43.6651
88 82 30.4517
88 83 99.1763
88 84 9.04406
88 85 14.7714
88 86 30.1948
88 87 43.5054
88 89 4.01956
88 90 3.5747
88 91 17.9955
88 92 18.2495
88 93 19.3259
88 94 20.325
88 95 1.93041
88 96 3.279
88 98 2.66188
88 99 1.28535
88 100 3.37794
88 101 9.7109
88 102 2.94022
88 103 2.94022
88 104 15.5913
88 106 5.33504
88 107 1.30614
88 109 6.99065
88 110 2.8395
88 111 2.8395
88 112 2.65994
88 113 2.65994
88 114 2.67644
88 115 2.67644
88 117 4.18052
88 118 4.18052
89 79 4.67822
89 80 8.18182
89 81 13.0142
89 82 14.2121
89 83 9.69061
89 84 13.3684
89 85 4.92571
89 86 14.1141
89 87 12.7715
89 88 9.31997
89 90 95.6007
89 91 34.423
89 92 35.1655
89 93 38.0489
89 94 37.8783
89 96 3.1102
89 97 1.26474
89 98 1.58614
89 99 1.70145
89 100 3.15584
89 101 4.29572
89 104 5.10133
89 105 1.22647
89 106 2.22483
89 107 1.10787
89 112 1.10903
89 113 1.10903
89 114 1.11571
89 115 1.11571
89 117 1.24253
89 118 1.24253
90 79 3.81347
90 80 7.52524
90 81 11.1892
90 82 12.4165
90 83 8.45598
90 84 10.2793
90 85 2.61965
90 86 12.2015
90 87 11.031
90 88 8.55106
90 89 64.5026
90 91 22.1738
90 92 22.3543
90 93 22.9844
90 94 22.3208
90 101 1.77143
90 104 2.7344
90 109 1.05946
91 79 6.85723
91 80 3.05334
91 81 9.85187
91 82 14.4306
91 83 7.52015
91 84 21.1915
91 85 18.213
91 86 14.0376
91 87 9.70038
91 88 7.25103
91 89 14.9214
91 90 14.9145
91 92 49.3227
91 93 38.1183
91 94 5.54599
91 95 38.5395
91 96 23.0295
91 97 33.5632
91 98 10.5872
91 99 5.13411
91 100 23.3816
91 101 15.3905
91 102 1.82421
91 103 1.82421
91 104 19.0389
91 105 3.69052
91 106 5.17505
91 107 3.25479
91 110 1.60753
91 111 1.60753
91 112 2.57928
91 113 2.57928
91 114 2.5945
91 115 2.5945
92 24 1.28328
92 26 1.1832
92 30 1.18475
92 31 1.58534
92 32 1.04527
92 41 1.46269
92 64 1.45354
92 68 1.27231
92 69 2.32349
92 74 1.15837
92 75 1.15837
92 76 1.16549
92 77 1.16549
92 79 6.52295
92 80 4.1797
92 81 10.5973
92 82 14.6653
92 83 8.04238
92 84 19.5319
92 85 15.4147
92 86 14.2369
92 87 10.4418
92 88 7.76582
92 89 15.4305
92 90 15.3874
92 91 49.8546
92 93 6.16206
92 94 40.5419
92 95 37.2969
92 96 6.73898
92 97 39.3609
92 98 19.3306
92 99 1.80368
92 100 6.84345
92 101 11.4141
92 102 2.35665
92 103 2.35665
92 104 16.1274
92 106 19.3832
92 109 3.90109
92 110 2.21618
92 111 2.21618
92 112 9.66967
92 113 9.66967
92 114 9.73441
92 115 9.73441
92 117 2.74048
92 118 2.74048
93 31 1.06053
93 79 1.71097
93 80 10.9628
93 81 12.8447
93 82 10.9012
93 83 9.362
93 84 1.67906
93 85 9.70933
93 86 10.851
93 87 12.5443
93 88 8.85197
93 89 13.7375
93 90 13.8932
93 91 34.2689
93 92 6.98617
93 94 56.5447
93 95 38.7086
93 96 19.268
93 97 35.9376
93 98 14.2036
93 99 2.91344
93 100 19.5867
93 101 8.30432
93 104 10.1296
93 105 2.12388
93 106 9.82673
93 107 1.89069
93 112 4.89605
93 113 4.89605
93 114 4.92354
93 115 4.92354
93 117 2.16481
93 118 2.16481
94 24 1.0918
94 31 1.02936
94 41 1.13937
94 64 1.3055
94 68 1.03224
94 69 2.15046
94 74 1.07207
94 75 1.07207
94 76 1.07863
94 77 1.07863
94 79 2.33055
94 80 10.5863
94 81 13.1367
94 82 11.7323
94 83 9.62273
94 84 3.98214
94 85 7.02203
94 86 11.6932
94 87 12.8294
94 88 9.14349
94 89 14.4547
94 90 14.6436
94 91 6.27269
94 92 37.5005
94 93 58.0743
94 95 39.7151
94 96 12.6569
94 97 38.9999
94 98 18.5904
94 100 12.8897
94 101 4.27847
94 102 1.52357
94 103 1.52357
94 104 7.32561
94 106 16.8018
94 107 1.0038
94 109 3.97548
94 110 1.4837
94 111 1.4837
94 112 8.38361
94 113 8.38361
94 114 8.4412
94 115 8.4412
94 117 1.56905
94 118 1.56905
95 19 1.0975
95 20 1.32065
95 24 2.08825
95 25 1.34308
95 26 2.05094
95 27 1.34867
95 28 1.34867
95 30 2.07281
95 31 2.72615
95 32 1.82885
95 36 1.35666
95 37 1.35666
95 38 1.36291
95 39 1.36291
95 41 2.42824
95 62 1.09147
95 64 2.33359
95 68 2.09306
95 69 3.70105
95 74 1.84507
95 75 1.84507
95 76 1.85635
95 77 1.85635
95 84 1.77001
95 85 2.84197
95 91 30.6556
95 92 28.8864
95 93 32.0435
95 94 30.7842
95 96 35.745
95 97 62.4818
95 98 2.30497
95 99 36.2809
95 100 36.4508
95 102 1.52978
95 103 1.52978
95 104 2.97504
95 105 2.86975
95 106 34.9707
95 107 2.90857
95 109 6.04432
95 110 1.56159
95 111 1.56159
95 112 17.4546
95 113 17.4546
95 114 17.579
95 115 17.579
95 117 4.8094
95 118 4.8094
96 7 1.49699
96 11 1.35603
96 12 1.05979
96 19 2.05985
96 20 2.9335
96 24 3.40891
96 25 2.98213
96 26 4.17271
96 27 2.86512
96 28 2.86512
96 29 1.55753
96 30 4.3389
96 31 5.41153
96 32 3.82699
96 34 1.9231
96 35 1.9231
96 36 2.69397
96 37 2.69397
96 38 2.70717
96 39 2.70717
96 41 4.2816
96 58 1.28437
96 59 1.5622
96 62 1.05934
96 63 1.59116
96 64 3.60343
96 68 3.57273
96 69 5.52076
96 74 2.75332
96 75 2.75332
96 76 2.77106
96 77 2.77106
96 79 4.21068
96 80 8.48226
96 81 4.48388
96 82 1.41857
96 83 3.00118
96 84 17.8695
96 85 26.6798
96 86 1.39106
96 87 4.39734
96 88 2.87245
96 90 1.11822
96 91 25.2373
96 92 7.29863
96 93 21.2256
96 94 12.7046
96 95 49.0924
96 97 9.67299
96 98 29.8435
96 99 39.9273
96 100 96.6723
96 101 25.7706
96 102 1.06306
96 103 1.06306
96 104 27.8967
96 105 9.87361
96 106 63.6998
96 107 9.19237
96 109 7.9085
96 112 31.6609
96 113 31.6609
96 114 31.7732
96 115 31.7732
96 117 10.1188
96 118 10.1188
97 79 1.14192
97 80 2.26038
97 81 1.22029
97 84 4.4483
97 85 6.81067
97 87 1.19918
97 91 25.0106
97 92 29.4756
97 93 27.5234
97 94 29.97
97 95 59.4454
97 96 6.54409
97 98 39.7666
97 99 39.733
97 100 6.67639
97 101 5.46219
97 104 7.10391
98 19 1.16322
98 20 1.14847
98 24 2.49499
98 25 1.16812
98 26 1.99223
98 27 1.24344
98 28 1.24344
98 30 1.94708
98 31 2.72297
98 32 1.71804
98 36 1.35496
98 37 1.35496
98 38 1.36109
98 39 1.36109
98 41 2.72516
98 58 1.03371
98 61 1.49809
98 62 1.7036
98 64 2.90246
98 68 2.41553
98 69 4.71061
98 74 2.34791
98 75 2.34791
98 76 2.36187
98 77 2.36187
98 79 2.3425
98 80 4.63067
98 81 2.63989
98 83 1.78742
98 84 9.79148
98 85 14.612
98 87 2.59036
98 88 1.74277
98 91 11.8133
98 92 21.8539
98 93 15.1039
98 94 20.2492
98 95 2.9612
98 96 30.0804
98 97 57.5909
98 99 55.0874
98 100 30.742
98 101 8.91494
98 102 3.17883
98 103 3.17883
98 104 15.2726
98 105 1.79187
98 106 39.0922
98 107 2.10062
98 109 8.30398
98 110 3.09715
98 111 3.09715
98 112 19.5402
98 113 19.5402
98 114 19.7039
98 115 19.7039
98 117 4.47288
98 118 4.47288
99 19 1.27444
99 20 1.32908
99 24 2.65419
99 25 1.35182
99 26 2.23412
99 27 1.41488
99 28 1.41488
99 30 2.20383
99 31 3.03052
99 32 1.94461
99 36 1.50798
99 37 1.50798
99 38 1.5148
99 39 1.5148
99 41 2.94304
99 58 1.08935
99 61 1.50822
99 62 1.71225
99 64 3.05886
99 68 2.59066
99 69 4.93856
99 74 2.46155
99 75 2.46155
99 76 2.4762
99 77 2.4762
99 79 1.776
99 80 3.49475
99 81 2.03842
99 83 1.38331
99 84 7.41965
99 85 11.0495
99 87 2.00098
99 88 1.35269
99 91 5.47438
99 92 2.19621
99 93 3.68963
99 95 46.1723
99 96 36.9581
99 97 52.7983
99 98 50.2858
99 100 37.8029
99 101 5.79229
99 102 2.87148
99 103 2.87148
99 104 11.5353
99 105 2.6561
99 106 42.4697
99 107 2.87844
99 109 8.56009
99 110 2.83456
99 111 2.83456
99 112 21.2293
99 113 21.2293
99 114 21.4078
99 115 21.4078
99 117 5.07815
99 118 5.07815
100 6 1.08659
100 7 1.91046
100 11 1.72202
100 19 2.30941
100 20 3.60719
100 23 1.1062
100 24 3.46344
100 25 3.66522
100 26 4.89919
100 27 3.44298
100 28 3.44298
100 29 1.98676
100 30 5.17445
100 31 6.2669
100 32 4.56224
100 34 2.2922
100 35 2.2922
100 36 3.12099
100 37 3.12099
100 38 3.1373
100 39 3.1373
100 41 4.60463
100 58 1.24713
100 59 1.94852
100 63 1.98402
100 64 3.49513
100 68 3.75552
100 69 5.18895
100 74 2.58854
100 75 2.58854
100 76 2.60581
100 77 2.60581
100 79 4.38144
100 80 8.65774
100 81 4.81063
100 82 1.65987
100 83 3.25157
100 84 18.2453
100 85 27.4324
100 86 1.58346
100 87 4.70911
100 88 3.15974
100 90 1.24036
100 91 26.0846
100 92 7.71376
100 93 22.5297
100 94 13.275
100 95 51.4433
100 96 100.256
100 97 9.7271
100 98 30.913
100 99 42.1605
100 101 26.0455
100 102 1.43355
100 103 1.43355
100 104 28.9126
100 105 9.17506
100 106 66.5657
100 107 8.49844
100 109 6.44381
100 110 1.04491
100 111 1.04491
100 112 32.9646
100 113 32.9646
100 114 32.9792
100 115 32.9792
100 117 12.0784
100 118 12.0784
101 19 1.34189
101 20 1.80405
101 24 2.34092
101 25 1.83432
101 26 2.6429
101 27 1.78831
101 28 1.78831
101 30 2.72156
101 31 3.45677
101 32 2.40085
101 34 1.20653
101 35 1.20653
101 36 1.72056
101 37 1.72056
101 38 1.72875
101 39 1.72875
101 41 2.8544
101 64 2.53016
101 68 2.41112
101 69 3.93199
101 74 1.96065
101 75 1.96065
101 76 1.97301
101 77 1.97301
101 79 2.56541
101 80 5.20588
101 81 2.67939
101 83 1.79135
101 84 10.8009
101 85 16.1676
101 87 2.63053
101 88 1.71748
101 91 6.23475
101 92 4.58264
101 93 3.42463
101 94 1.66055
101 96 10.0232
101 97 2.77136
101 98 3.513
101 99 2.5552
101 100 10.1952
101 102 38.4446
101 103 38.4446
101 104 16.8466
101 105 70.394
101 106 12.6092
101 107 61.7769
101 108 9.91667
101 109 5.96145
101 110 34.0289
101 111 34.0289
101 112 6.28746
101 113 6.28746
101 114 6.3271
101 115 6.3271
101 116 10.0281
101 117 6.33887
101 118 6.33887
102 20 1.32845
102 24 1.5288
102 25 1.35063
102 26 1.88588
102 27 1.2964
102 28 1.2964
102 30 1.96232
102 31 2.44389
102 32 1.73098
102 36 1.21649
102 37 1.21649
102 38 1.22234
102 39 1.22234
102 41 1.92555
102 64 1.6122
102 68 1.60426
102 69 2.46642
102 74 1.22992
102 75 1.22992
102 76 1.23772
102 77 1.23772
102 84 1.745
102 85 2.66811
102 98 1.06807
102 99 1.03722
102 101 40.7384
102 103 53.7435
102 104 2.77425
102 105 38.4141
102 106 2.33886
102 107 33.7177
102 108 5.42963
102 109 3.50912
102 110 18.7053
102 111 18.7053
102 112 1.16606
102 113 1.16606
102 114 1.17324
102 115 1.17324
102 116 5.49386
102 117 4.58216
102 118 4.58216
103 20 1.32845
103 24 1.5288
103 25 1.35063
103 26 1.88588
103 27 1.2964
103 28 1.2964
103 30 1.96232
103 31 2.44389
103 32 1.73098
103 36 1.21649
103 37 1.21649
103 38 1.22234
103 39 1.22234
103 41 1.92555
103 64 1.6122
103 68 1.60426
103 69 2.46642
103 74 1.22992
103 75 1.22992
103 76 1.23772
103 77 1.23772
103 84 1.745
103 85 2.66811
103 98 1.06807
103 99 1.03722
103 101 40.7384
103 102 53.7435
103 104 2.77425
103 105 38.4141
103 106 2.33886
103 107 33.7177
103 108 5.42963
103 109 3.50912
103 110 18.7053
103 111 18.7053
103 112 1.16606
103 113 1.16606
103 114 1.17324
103 115 1.17324
103 116 5.49386
103 117 4.58216
103 118 4.58216
104 6 1.03723
104 7 1.91074
104 11 1.71541
104 19 2.13708
104 20 3.53402
104 23 1.14319
104 24 2.986
104 25 3.5919
104 26 4.68041
104 27 3.33403
104 28 3.33403
104 29 1.98765
104 30 4.98699
104 31 5.93537
104 32 4.39806
104 34 2.20995
104 35 2.20995
104 36 2.9551
104 37 2.9551
104 38 2.96987
104 39 2.96987
104 41 4.14401
104 58 1.03292
104 59 1.92133
104 63 1.95657
104 64 2.8976
104 68 3.31824
104 69 4.18271
104 74 2.08601
104 75 2.08601
104 76 2.09946
104 77 2.09946
104 79 16.3206
104 80 34.1096
104 81 17.1132
104 82 4.17938
104 83 11.4698
104 84 63.6082
104 85 96.6555
104 86 4.23592
104 87 16.9587
104 88 11.0948
104 89 4.96862
104 90 4.41225
104 91 35.5765
104 92 29.9356
104 93 19.6438
104 94 13.6279
104 95 6.46197
104 96 49.205
104 97 17.2298
104 98 26.7225
104 99 22.9856
104 100 50.3912
104 101 77.9518
104 102 10.2935
104 103 10.2935
104 105 16.1438
104 106 40.9904
104 107 13.9627
104 108 2.46637
104 109 4.44669
104 110 9.23828
104 111 9.23828
104 112 20.3817
104 113 20.3817
104 114 20.4609
104 115 20.4609
104 116 2.4925
104 117 11.6989
104 118 11.6989
105 6 1.15961
105 7 1.8264
105 11 1.65943
105 12 1.43056
105 19 2.62949
105 20 3.62879
105 21 1.0913
105 24 4.48076
105 25 3.68783
105 26 5.23664
105 27 3.56815
105 28 3.56815
105 29 1.89967
105 30 5.419
105 31 6.82372
105 32 4.77838
105 34 2.4009
105 35 2.4009
105 36 3.39798
105 37 3.39798
105 38 3.41547
105 39 3.41547
105 41 5.53433
105 47 1.25267
105 58 1.71268
105 59 1.92562
105 61 1.44918
105 62 1.60716
105 63 1.96104
105 64 4.80078
105 68 4.65619
105 69 7.41732
105 74 3.70041
105 75 3.70041
105 76 3.72531
105 77 3.72531
105 80 1.02603
105 84 2.29056
105 85 3.34736
105 91 1.92633
105 93 1.38855
105 95 1.79056
105 96 5.12559
105 100 5.21127
105 101 82.5388
105 102 43.0125
105 103 43.0125
105 104 3.48625
105 106 11.2988
105 107 87.0593
105 108 12.3581
105 109 11.022
105 110 38.0523
105 111 38.0523
105 112 5.63759
105 113 5.63759
105 114 5.6764
105 115 5.6764
105 116 12.3817
105 117 12.5873
105 118 12.5873
106 2 1.00941
106 6 2.03806
106 7 3.07603
106 11 2.80202
106 12 2.75764
106 13 1.44405
106 14 1.29527
106 16 1.07953
106 17 1.0559
106 19 4.72453
106 20 6.2378
106 21 2.0132
106 23 1.57255
106 24 8.36888
106 25 6.34165
106 26 9.2181
106 27 6.20934
106 28 6.20934
106 29 3.20057
106 30 9.46541
106 31 12.0895
106 32 8.34904
106 33 1.28404
106 34 4.19556
106 35 4.19556
106 36 6.01813
106 37 6.01813
106 38 6.04741
106 39 6.04741
106 40 1.29415
106 41 10.1176
106 43 1.14426
106 47 2.32811
106 55 1.97766
106 57 1.38346
106 58 3.24534
106 59 3.28249
106 61 3.13157
106 62 3.49909
106 63 3.34363
106 64 9.1051
106 68 8.58222
106 69 14.2063
106 70 1.1725
106 74 7.08491
106 75 7.08491
106 76 7.1305
106 77 7.1305
106 79 2.33039
106 80 4.73068
106 81 2.4321
106 83 1.62659
106 84 9.79343
106 85 14.6654
106 87 2.38822
106 88 1.56145
106 91 3.80073
106 92 13.6129
106 93 6.74018
106 94 11.3604
106 95 30.5415
106 96 41.1579
106 98 25.8717
106 99 30.2665
106 100 41.9502
106 101 21.3362
106 102 3.03137
106 103 3.03137
106 104 15.2735
106 105 15.4107
106 107 14.9503
106 109 21.8944
106 110 3.44126
106 111 3.44126
106 112 40.0185
106 113 40.0185
106 114 40.2595
106 115 40.2595
106 117 22.0024
106 118 22.0024
107 7 1.31246
107 11 1.19389
107 12 1.11551
107 19 1.964
107 20 2.63937
107 24 3.42706
107 25 2.68327
107 26 3.86529
107 27 2.61544
107 28 2.61544
107 29 1.36558
107 30 3.98072
107 31 5.0561
107 32 3.5112
107 34 1.76444
107 35 1.76444
107 36 2.51695
107 37 2.51695
107 38 2.52921
107 39 2.52921
107 41 4.17788
107 58 1.32083
107 59 1.39291
107 61 1.21483
107 62 1.35367
107 63 1.41883
107 64 3.70574
107 68 3.53107
107 69 5.75993
107 74 2.87257
107 75 2.87257
107 76 2.89106
107 77 2.89106
107 84 1.50701
107 85 2.22886
107 91 1.27645
107 95 1.28455
107 96 3.48598
107 100 3.54661
107 101 55.231
107 102 28.7754
107 103 28.7754
107 104 2.31976
107 105 66.6946
107 106 8.07721
107 108 22.632
107 109 8.74721
107 110 40.8995
107 111 40.8995
107 112 4.0278
107 113 4.0278
107 114 4.05335
107 115 4.05335
107 116 23.0422
107 117 9.26071
107 118 9.26071
108 85 1.08367
108 96 1.34997
108 100 1.37365
108 101 25.5933
108 102 13.3604
108 103 13.3604
108 104 1.1276
108 105 28.907
108 106 1.99808
108 107 70.5901
108 110 35.0985
108 111 35.0985
108 114 1.00219
108 115 1.00219
108 116 98.0111
108 117 1.35143
108 118 1.35143
109 1 2.1035
109 2 4.17135
109 3 2.39068
109 5 1.61228
109 6 8.91559
109 7 13.2225
109 9 2.34726
109 10 1.5547
109 11 12.0114
109 12 12.4618
109 13 6.18344
109 14 5.58784
109 15 1.79344
109 16 4.87488
109 17 4.35699
109 18 2.5631
109 19 20.8317
109 20 27.0305
109 21 8.96574
109 22 1.47582
109 23 6.68158
109 24 37.4694
109 25 27.5302
109 26 40.5813
109 27 27.1815
109 28 27.1815
109 29 13.7818
109 30 41.4633
109 31 53.3278
109 32 36.6313
109 33 5.63063
109 34 18.4208
109 35 18.4208
109 36 26.5007
109 37 26.5007
109 38 26.5906
109 39 26.5906
109 40 5.68274
109 41 44.9495
109 42 2.41513
109 43 4.82586
109 44 2.73356
109 46 1.83846
109 47 10.3389
109 48 2.88653
109 50 2.68184
109 51 1.76028
109 54 1.5955
109 55 9.08293
109 56 1.18387
109 57 6.55176
109 58 14.4859
109 59 14.0766
109 60 1.11324
109 61 14.6354
109 62 16.3498
109 63 14.3525
109 64 40.8354
109 65 2.88495
109 66 2.88495
109 67 3.00541
109 68 38.0163
109 69 63.853
109 70 5.07636
109 72 2.5496
109 73 2.5496
109 74 31.7786
109 75 31.7786
109 76 31.9268
109 77 31.9268
109 79 1.41698
109 80 2.78011
109 81 1.68597
109 83 1.13866
109 84 6.07788
109 85 8.94108
109 87 1.65545
109 88 1.0924
109 92 7.19895
109 93 2.51187
109 94 5.81005
109 95 14.3762
109 96 17.7253
109 98 13.09
109 99 15.1163
109 100 18.0592
109 101 32.738
109 102 21.0249
109 103 21.0249
109 104 9.31173
109 105 53.8596
109 106 67.7343
109 107 53.6912
109 108 1.15429
109 110 22.0179
109 111 22.0179
109 112 33.6995
109 113 33.6995
109 114 33.8475
109 115 33.8475
109 116 1.16572
109 117 97.7497
109 118 97.7497
110 31 1.29661
110 41 1.12344
110 64 1.04982
110 69 1.65371
110 85 1.22077
110 101 19.7557
110 102 10.5129
110 103 10.5129
110 104 1.27022
110 105 18.7821
110 106 1.0623
110 107 27.0097
110 108 7.9252
110 109 2.63682
110 111 69.7487
110 116 8.01102
110 117 2.32087
110 118 2.32087
111 31 1.29661
111 41 1.12344
111 64 1.04982
111 69 1.65371
111 85 1.22077
111 101 19.7557
111 102 10.5129
111 103 10.5129
111 104 1.27022
111 105 18.7821
111 106 1.0623
111 107 27.0097
111 108 7.9252
111 109 2.63682
111 110 69.7487
111 116 8.01102
111 117 2.32087
111 118 2.32087
112 19 1.1922
112 20 1.53573
112 24 2.15512
112 25 1.56175
112 26 2.3009
112 27 1.53987
112 28 1.53987
112 30 2.35218
112 31 3.02829
112 32 2.07529
112 34 1.04299
112 35 1.04299
112 36 1.50707
112 37 1.50707
112 38 1.51405
112 39 1.51405
112 41 2.57675
112 64 2.36213
112 68 2.19416
112 69 3.70298
112 74 1.84613
112 75 1.84613
112 76 1.8575
112 77 1.8575
112 80 1.23227
112 84 2.50893
112 85 3.77406
112 92 3.47487
112 93 1.75326
112 94 2.88961
112 95 7.84476
112 96 10.6073
112 98 6.5916
112 99 7.7322
112 100 10.7907
112 101 5.5537
112 104 3.92527
112 105 4.05569
112 106 20.7641
112 107 3.93818
112 109 5.79834
112 113 68.3113
112 114 10.2044
112 115 10.2044
112 117 5.47582
112 118 5.47582
113 19 1.1922
113 20 1.53573
113 24 2.15512
113 25 1.56175
113 26 2.3009
113 27 1.53987
113 28 1.53987
113 30 2.35218
113 31 3.02829
113 32 2.07529
113 34 1.04299
113 35 1.04299
113 36 1.50707
113 37 1.50707
113 38 1.51405
113 39 1.51405
113 41 2.57675
113 64 2.36213
113 68 2.19416
113 69 3.70298
113 74 1.84613
113 75 1.84613
113 76 1.8575
113 77 1.8575
113 80 1.23227
113 84 2.50893
113 85 3.77406
113 92 3.47487
113 93 1.75326
113 94 2.88961
113 95 7.84476
113 96 10.6073
113 98 6.5916
113 99 7.7322
113 100 10.7907
113 101 5.5537
113 104 3.92527
113 105 4.05569
113 106 20.7641
113 107 3.93818
113 109 5.79834
113 112 68.3113
113 114 10.2044
113 115 10.2044
113 117 5.47582
113 118 5.47582
114 24 1.3237
114 26 1.37071
114 30 1.3956
114 31 1.81043
114 32 1.23131
114 41 1.56635
114 64 1.46152
114 68 1.33985
114 69 2.30135
114 74 1.14733
114 75 1.14733
114 76 1.15439
114 77 1.15439
114 84 1.5367
114 85 2.32219
114 92 2.11748
114 93 1.08731
114 94 1.75445
114 95 4.80326
114 96 6.5178
114 98 4.00915
114 99 4.70261
114 100 6.63009
114 101 3.45638
114 104 2.41513
114 105 2.54974
114 106 12.8593
114 107 2.47702
114 109 3.66318
114 112 6.41779
114 113 6.41779
114 115 82.6426
114 117 3.24499
114 118 3.24499
115 24 1.3237
115 26 1.37071
115 30 1.3956
115 31 1.81043
115 32 1.23131
115 41 1.56635
115 64 1.46152
115 68 1.33985
115 69 2.30135
115 74 1.14733
115 75 1.14733
115 76 1.15439
115 77 1.15439
115 84 1.5367
115 85 2.32219
115 92 2.11748
115 93 1.08731
115 94 1.75445
115 95 4.80326
115 96 6.5178
115 98 4.00915
115 99 4.70261
115 100 6.63009
115 101 3.45638
115 104 2.41513
115 105 2.54974
115 106 12.8593
115 107 2.47702
115 109 3.66318
115 112 6.41779
115 113 6.41779
115 114 82.6426
115 117 3.24499
115 118 3.24499
116 84 1.02797
116 85 1.66093
116 101 25.8347
116 102 13.7811
116 103 13.7811
116 104 1.72756
116 105 26.0589
116 107 68.4899
116 108 95.0033
116 109 2.18173
116 110 35.3954
116 111 35.3954
117 1 2.16446
117 2 4.3136
117 3 2.417
117 5 1.62787
117 6 9.14738
117 7 13.5978
117 9 2.37336
117 10 1.56989
117 11 12.3597
117 12 12.7335
117 13 6.36348
117 14 5.74355
117 15 1.8609
117 16 4.9822
117 17 4.50577
117 18 2.59687
117 19 21.3519
117 20 27.7684
117 21 9.17758
117 22 1.54543
117 23 6.87939
117 24 38.3266
117 25 28.2719
117 26 41.5853
117 27 27.8767
117 28 27.8767
117 29 14.1682
117 30 42.5223
117 31 54.635
117 32 37.5554
117 33 5.77328
117 34 18.8829
117 35 18.8829
117 36 27.1594
117 37 27.1594
117 38 27.2591
117 39 27.2591
117 40 5.82518
117 41 46.0241
117 42 2.48128
117 43 4.97902
117 44 2.7656
117 46 1.85788
117 47 10.5912
117 48 3.00697
117 50 2.71364
117 51 1.77908
117 54 1.60463
117 55 9.26472
117 56 1.25763
117 57 6.65697
117 58 14.8312
117 59 14.4871
117 60 1.14377
117 61 14.8947
117 62 16.6427
117 63 14.7684
117 64 41.7715
117 65 2.96428
117 66 2.96428
117 67 3.13046
117 68 38.9558
117 69 65.3053
117 70 5.21621
117 72 2.62
117 73 2.62
117 74 32.5144
117 75 32.5144
117 76 32.6772
117 77 32.6772
117 79 1.46009
117 80 2.8857
117 81 1.69347
117 83 1.14163
117 84 6.23605
117 85 9.20649
117 87 1.66296
117 88 1.09527
117 92 7.34946
117 93 2.6143
117 94 5.90979
117 95 14.7359
117 96 18.2324
117 98 13.3346
117 99 15.4007
117 100 18.5716
117 101 33.5142
117 102 21.5501
117 103 21.5501
117 104 9.58605
117 105 55.2042
117 106 69.3298
117 107 55.011
117 108 1.18242
117 109 100.401
117 110 22.5582
117 111 22.5582
117 112 34.5079
117 113 34.5079
117 114 34.672
117 115 34.672
117 116 1.19406
117 118 99.9897
118 1 2.16509
118 2 4.31523
118 3 2.4169
118 5 1.62777
118 6 9.14959
118 7 13.6017
118 9 2.37327
118 10 1.56979
118 11 12.3632
118 12 12.7354
118 13 6.36531
118 14 5.74515
118 15 1.86178
118 16 4.98295
118 17 4.50754
118 18 2.59679
118 19 21.3566
118 20 27.7758
118 21 9.17936
118 22 1.54654
118 23 6.88167
118 24 38.3337
118 25 28.2794
118 26 41.5954
118 27 27.8838
118 28 27.8838
118 29 14.1723
118 30 42.5329
118 31 54.648
118 32 37.5648
118 33 5.77472
118 34 18.8877
118 35 18.8877
118 36 27.1658
118 37 27.1658
118 38 27.2655
118 39 27.2655
118 40 5.82664
118 41 46.0334
118 42 2.48186
118 43 4.98054
118 44 2.76544
118 46 1.85773
118 47 10.5932
118 48 3.00856
118 50 2.71348
118 51 1.77894
118 54 1.60431
118 55 9.26566
118 56 1.25874
118 57 6.65716
118 58 14.8337
118 59 14.4911
118 60 1.14399
118 61 14.8956
118 62 16.6437
118 63 14.7724
118 64 41.7785
118 65 2.96505
118 66 2.96505
118 67 3.13211
118 68 38.9634
118 69 65.3157
118 70 5.21757
118 72 2.62068
118 73 2.62068
118 74 32.5196
118 75 32.5196
118 76 32.6824
118 77 32.6824
118 79 1.4604
118 80 2.88667
118 81 1.69304
118 83 1.14129
118 84 6.23689
118 85 9.20833
118 87 1.66253
118 88 1.09495
118 92 7.34977
118 93 2.61533
118 94 5.90964
118 95 14.7376
118 96 18.2356
118 98 13.3346
118 99 15.4007
118 100 18.5749
118 101 33.5178
118 102 21.5529
118 103 21.5529
118 104 9.58796
118 105 55.211
118 106 69.3367
118 107 55.0178
118 108 1.18255
118 109 100.413
118 110 22.5611
118 111 22.5611
118 112 34.5113
118 113 34.5113
118 114 34.6754
118 115 34.6754
118 116 1.19419
118 117 99.9966
